<svg width="101" height="57" viewBox="0 0 101 57" fill="none" xmlns="http://www.w3.org/2000/svg">
<path d="M84.2487 41.905C103.849 25.905 103.749 17.7833 95.2487 12.905C37.7487 -20.095 -8.25131 23.905 1.24869 41.905C10.7487 59.905 59.7487 61.905 84.2487 41.905Z" fill="#97B6A7"/>
<path d="M81.8116 40.7941C99.9141 26.01 99.8217 18.5055 91.9712 13.998C38.8645 -16.4941 -3.62087 24.162 5.15328 40.7941C13.9274 57.4261 59.1836 59.2741 81.8116 40.7941Z" fill="#B5D2C4"/>
<path d="M79.5 18.4702C81.1 18.4702 81.1667 20.4702 81 21.4702C80.6 20.2702 79.1667 19.6369 78.5 19.4702L79.5 18.4702Z" fill="#F4683C"/>
<path d="M19.6791 33.4793H20.9523C21.2706 33.3658 21.9072 33.0708 21.9072 32.7985C21.9072 32.4582 22.5438 33.1389 22.8621 32.7985C23.1167 32.5262 23.3926 32.6851 23.4987 32.7985L24.4536 33.1389L25.4085 33.4793L26.0451 34.16V35.1811L27 35.8619C26.8939 36.0888 26.6817 36.6107 26.6817 36.883C26.6817 37.1553 26.8939 37.4503 27 37.5637V38.5849L26.6817 39.2656L25.7268 39.9463L24.4536 40.6271C24.199 40.6271 23.9231 41.0809 23.817 41.3078C23.6048 41.3078 22.8621 41.3759 21.5889 41.6482C20.9523 41.6482 20.9523 41.6482 20.3157 41.3078C19.9974 41.3078 19.9974 40.9675 19.0425 40.9675C18.7242 40.9675 18.4059 39.606 18.4059 39.2656V38.2445C18.4059 38.0176 18.3422 37.4276 18.0876 36.883C17.8329 36.6107 18.1937 36.3157 18.4059 36.2023C18.512 36.0888 18.6605 35.7938 18.4059 35.5215L18.0876 35.1811L18.7242 34.16L19.6791 33.4793Z" fill="#F4683C"/>
<path d="M91.9999 15.6483C98.3999 26.8483 80.3333 37.6483 70.4999 41.6483C54.9999 45.1484 38.9999 53.1483 26.4999 51.1483C13.9999 49.1483 6.49991 43.1483 5.99991 35.1483C5.49991 27.1483 13.9999 30.1483 16.9999 19.6483C19.9999 9.14832 29.9999 1.64834 40.4999 0.648345C50.9999 -0.351655 53.9999 5.14834 62.4999 9.64834C70.9999 14.1483 83.9999 1.64834 91.9999 15.6483Z" fill="#F4683C"/>
<mask id="mask0" mask-type="alpha" maskUnits="userSpaceOnUse" x="5" y="0" width="89" height="52">
<path d="M91.9999 15.6483C98.3999 26.8483 80.3333 37.6483 70.4999 41.6483C54.9999 45.1484 38.9999 53.1483 26.4999 51.1483C13.9999 49.1483 6.49991 43.1483 5.99991 35.1483C5.49991 27.1483 13.9999 30.1483 16.9999 19.6483C19.9999 9.14832 29.9999 1.64834 40.4999 0.648345C50.9999 -0.351655 53.9999 5.14834 62.4999 9.64834C70.9999 14.1483 83.9999 1.64834 91.9999 15.6483Z" fill="#B5D2C4"/>
</mask>
<g mask="url(#mask0)">
<path d="M9.5 25.1484C11.8333 29.3151 20 37.5484 34 37.1484C51.5 36.6484 65.5 31.1484 70 28.1484" stroke="#D3542C"/>
<path d="M8 28.5293C10.3333 32.696 18.5 40.9293 32.5 40.5293C50 40.0293 64 34.5293 68.5 31.5293" stroke="#D3542C"/>
<path d="M3 35.5293C5.33333 39.696 13.5 47.9293 27.5 47.5293C45 47.0293 59 41.5293 63.5 38.5293" stroke="#D3542C"/>
<path d="M5.40283 26.6484C7.23362 31.0591 14.3829 40.1898 28.3338 41.4274C45.7725 42.9745 60.319 39.1471 65.1385 36.6931" stroke="#D3542C"/>
<path d="M3.40283 29.5293C5.23362 33.9399 12.3829 43.0706 26.3338 44.3083C43.7725 45.8554 58.319 42.0279 63.1385 39.574" stroke="#D3542C"/>
<path d="M0.402832 32.6484C2.23362 37.0591 9.38292 46.1898 23.3338 47.4274C40.7725 48.9745 55.319 45.1471 60.1385 42.6931" stroke="#D3542C"/>
<path d="M77.5 4.14844C77.3333 12.1484 71.9 33.0484 51.5 52.6484" stroke="#D3542C"/>
<path d="M79 6.5293C78.8333 14.5293 73.4 35.4293 53 55.0293" stroke="#D3542C"/>
<path d="M81 7.5293C80.8333 15.5293 75.4 36.4293 55 56.0293" stroke="#D3542C"/>
<path d="M83 8.5293C82.8333 16.5293 77.4 37.4293 57 57.0293" stroke="#D3542C"/>
<path d="M86 9.5293C85.8333 17.5293 80.4 38.4293 60 58.0293" stroke="#D3542C"/>
<path d="M88 10.5293C87.8333 18.5293 82.4 39.4293 62 59.0293" stroke="#D3542C"/>
<path d="M92 12.5293C91.8333 20.5293 86.4 41.4293 66 61.0293" stroke="#D3542C"/>
<path d="M90 13.5293C89.8333 21.5293 84.4 42.4293 64 62.0293" stroke="#D3542C"/>
<path d="M85.0788 6.25843C84.552 14.2428 78.1829 34.8769 56.9208 53.5382" stroke="#D3542C"/>
<path d="M91.8313 7.89984C90.7283 15.8252 82.883 35.9444 60.3266 53.0186" stroke="#D3542C"/>
<path d="M26.5 4.14844C33.8333 9.3151 53.9 18.7484 75.5 15.1484" stroke="#D3542C"/>
<path d="M26 6.5293C33.3333 11.7839 53.4 21.3779 75 17.7166" stroke="#D3542C"/>
<path d="M28 1.5293C35.1837 6.78394 54.8408 16.3779 76 12.7166" stroke="#D3542C"/>
<path d="M28 -0.470703C35.3333 4.69596 55.4 14.1293 77 10.5293" stroke="#D3542C"/>
<path d="M19.5195 8.66357C28.0643 14.6169 51.0042 24.9427 74.4051 18.62" stroke="#D3542C"/>
<path d="M19 10.5188C27.5448 16.4721 50.4847 26.798 73.8856 20.4752" stroke="#D3542C"/>
<path d="M18 12.5188C26.5448 18.4721 49.4847 28.798 72.8856 22.4752" stroke="#D3542C"/>
<path d="M17 13.6377C25.5448 19.591 48.4847 29.9168 71.8856 23.5941" stroke="#D3542C"/>
<path d="M21.5 16.6484C21.6667 20.3151 24.3 29.5484 33.5 37.1484" stroke="#D3542C"/>
<path d="M18 15.5293C18.1667 19.2854 20.8 28.7439 30 36.5293" stroke="#D3542C"/>
<path d="M16 16.5293C16.1528 20.1065 18.5667 29.1147 27 36.5293" stroke="#D3542C"/>
<path d="M13 16.5293C13.1528 19.9277 15.5667 28.4854 24 35.5293" stroke="#D3542C"/>
<path d="M27 18.6484C27.2361 21.8679 30.9667 29.9753 44 36.6484" stroke="#D3542C"/>
<path d="M34 21.6484C34.2778 23.9736 38.6667 29.8289 54 34.6484" stroke="#D3542C"/>
</g>
<path d="M61.1599 18.1408C59.9924 19.0689 57.8485 19.4295 56.9225 19.4938C54.9535 18.8605 53.2425 16.8618 52.6332 15.9416L53.776 15.766L53.4421 15.1154L54.0927 14.7814L54.251 14.2892L56.0617 15.4147L55.8688 12.6368L57.1873 13.604L57.9962 12.7778L58.1718 13.9207L59.473 13.2528L58.523 16.2063L59.6659 16.0307L59.8415 17.1736L60.4921 16.8396C60.5506 17.2206 60.7661 18.0141 61.1599 18.1408Z" fill="#B5D2C4"/>
<path d="M47.0082 35.6246C46.664 36.7464 45.4339 37.9347 44.8619 38.3887C43.3027 38.8544 41.3031 38.3196 40.4982 37.994L41.1613 37.3713L40.6551 37.0979L40.9285 36.5917L40.812 36.2019L42.4876 36.1259L41.1258 34.4098L42.4116 34.4503L42.5685 33.5543L43.1912 34.2174L43.7379 33.2049L44.4366 35.5437L45.0997 34.921L45.7224 35.5841L45.9957 35.0779C46.2033 35.2989 46.6964 35.7177 47.0082 35.6246Z" fill="#B5D2C4"/>
<path d="M32.4255 13.6581C32.4278 14.8313 31.6036 16.3295 31.1912 16.932C29.8394 17.8372 27.7714 17.9166 26.9064 17.8432L27.356 17.0526L26.7917 16.941L26.9034 16.3767L26.6771 16.0387L28.2552 15.4715L26.4478 14.2343L27.688 13.8933L27.5733 12.9911L28.3639 13.4407L28.5872 12.3122L29.9451 14.34L30.3947 13.5494L31.1853 13.999L31.2969 13.4347C31.5604 13.5846 32.1551 13.8391 32.4255 13.6581Z" fill="#97B6A7"/>
<path d="M29.9763 33.3842C30.128 30.343 27.3202 27.9689 25.8974 27.162C22.8657 28.0832 21.2324 30.4075 20.7947 31.4545C20.3637 33.2465 22.8641 37.9181 23.3071 37.4671C25.7637 37.2216 30.2098 34.4997 29.9763 33.3842Z" fill="#97B6A7"/>
<mask id="mask1" mask-type="alpha" maskUnits="userSpaceOnUse" x="18" y="26" width="14" height="14">
<path d="M29.9763 33.3842C30.128 30.343 27.3202 27.9689 25.8974 27.162C22.8657 28.0832 21.2324 30.4075 20.7947 31.4545C20.3637 33.2465 22.8641 37.9181 23.3071 37.4671C25.7637 37.2216 30.2098 34.4997 29.9763 33.3842Z" fill="#F4683C"/>
</mask>
<g mask="url(#mask1)">
<path d="M29.9532 29.0991C28.5394 30.4967 25.7069 34.1354 25.6875 37.5091" stroke="#B5D2C4"/>
<path d="M24.2086 26.0728C22.9566 28.4969 20.8037 34.464 22.2083 38.9389" stroke="#B5D2C4"/>
<path d="M26.4945 25.7703C25.2425 28.1945 23.0896 34.1615 24.4942 38.6364" stroke="#B5D2C4"/>
</g>
<path d="M65.4048 30.3486C64.6506 27.7687 61.6718 26.5486 60.2767 26.261C58.0665 27.8525 57.4035 30.2359 57.3483 31.2287C57.5136 32.8415 60.9048 36.063 61.1364 35.5663C63.072 34.6949 65.9176 31.2165 65.4048 30.3486Z" fill="#97B6A7"/>
<mask id="mask2" mask-type="alpha" maskUnits="userSpaceOnUse" x="57" y="26" width="9" height="10">
<path d="M65.4048 30.3486C64.6506 27.7687 61.6718 26.5486 60.2767 26.261C58.0665 27.8525 57.4035 30.2359 57.3483 31.2287C57.5136 32.8415 60.9048 36.063 61.1364 35.5663C63.072 34.6949 65.9176 31.2165 65.4048 30.3486Z" fill="#F4683C"/>
</mask>
<g mask="url(#mask2)">
<path d="M64.1486 26.7779C63.3974 28.3282 62.1345 32.1341 63.0927 34.9557" stroke="#B5D2C4"/>
<path d="M58.5828 25.8099C58.2601 28.1733 58.2245 33.7386 60.6637 37.0931" stroke="#B5D2C4"/>
<path d="M60.3625 24.9374C60.0398 27.3007 60.0043 32.8661 62.4435 36.2206" stroke="#B5D2C4"/>
</g>
<path d="M74.8974 22.4727C76.6317 20.3033 75.8205 17.0491 75.198 15.6932C72.4635 14.7578 70.0153 15.6064 69.133 16.1477C67.8583 17.2437 67.2167 22.034 67.785 21.9366C69.7336 23.0652 74.4752 23.4226 74.8974 22.4727Z" fill="#B5D2C4"/>
<mask id="mask3" mask-type="alpha" maskUnits="userSpaceOnUse" x="66" y="14" width="11" height="10">
<path d="M74.8974 22.4727C76.6317 20.3033 75.8205 17.0491 75.198 15.6932C72.4635 14.7578 70.0153 15.6064 69.133 16.1477C67.8583 17.2437 67.2167 22.034 67.785 21.9366C69.7336 23.0652 74.4752 23.4226 74.8974 22.4727Z" fill="#F4683C"/>
</mask>
<g mask="url(#mask3)">
<path d="M77.1657 19.2898C75.3742 19.5699 71.3376 20.7514 69.5238 23.2373" stroke="#97B6A7"/>
<path d="M74.5294 13.9863C72.31 15.1123 67.5344 18.3792 66.1869 22.4394" stroke="#97B6A7"/>
<path d="M76.382 14.9819C74.1626 16.1079 69.3869 19.3748 68.0395 23.435" stroke="#97B6A7"/>
</g>
<path d="M49.8298 26.179C51.5641 24.0096 50.7528 20.7554 50.1304 19.3995C47.3959 18.4641 44.9477 19.3127 44.0654 19.854C42.7906 20.95 42.1491 25.7403 42.7174 25.6429C44.666 26.7715 49.4075 27.1289 49.8298 26.179Z" fill="#B5D2C4"/>
<mask id="mask4" mask-type="alpha" maskUnits="userSpaceOnUse" x="41" y="18" width="11" height="10">
<path d="M49.8298 26.179C51.5641 24.0096 50.7528 20.7554 50.1304 19.3995C47.3959 18.4641 44.9477 19.3127 44.0654 19.854C42.7906 20.95 42.1491 25.7403 42.7174 25.6429C44.666 26.7715 49.4075 27.1289 49.8298 26.179Z" fill="#F4683C"/>
</mask>
<g mask="url(#mask4)">
<path d="M52.0981 22.9961C50.3065 23.2762 46.27 24.4577 44.4562 26.9436" stroke="#97B6A7"/>
<path d="M49.4618 17.6926C47.2424 18.8186 42.4668 22.0855 41.1193 26.1457" stroke="#97B6A7"/>
<path d="M51.3143 18.6882C49.095 19.8142 44.3193 23.0811 42.9718 27.1413" stroke="#97B6A7"/>
</g>
<path d="M48.8447 13.1636C50.5686 10.9859 49.7417 7.73564 49.1128 6.38272C46.3739 5.46041 43.9297 6.32077 43.05 6.86624C41.7806 7.96837 41.1619 12.7617 41.7298 12.6615C43.6837 13.7808 48.427 14.1155 48.8447 13.1636Z" fill="#B5D2C4"/>
<mask id="mask5" mask-type="alpha" maskUnits="userSpaceOnUse" x="40" y="5" width="11" height="10">
<path d="M48.8447 13.1636C50.5686 10.9859 49.7417 7.73564 49.1128 6.38272C46.3739 5.46041 43.9297 6.32077 43.05 6.86624C41.7806 7.96837 41.1619 12.7617 41.7298 12.6615C43.6837 13.7808 48.427 14.1155 48.8447 13.1636Z" fill="#F4683C"/>
</mask>
<g mask="url(#mask5)">
<path d="M51.0977 9.96981C49.3075 10.2584 45.2766 11.4593 43.4747 13.9539" stroke="#97B6A7"/>
<path d="M48.4361 4.67891C46.2222 5.81545 41.4622 9.10519 40.1342 13.1718" stroke="#97B6A7"/>
<path d="M50.2935 5.66572C48.0796 6.80226 43.3196 10.092 41.9916 14.1586" stroke="#97B6A7"/>
</g>
</svg>
