<svg width="101" height="61" viewBox="0 0 101 61" fill="none" xmlns="http://www.w3.org/2000/svg">
<path d="M84.2487 45.7861C103.849 29.7861 103.749 21.6644 95.2487 16.7861C37.7487 -16.2139 -8.25131 27.7861 1.24869 45.7861C10.7487 63.7861 59.7487 65.7861 84.2487 45.7861Z" fill="#D3542C"/>
<path d="M81.8116 44.6752C99.9141 29.8911 99.8217 22.3866 91.9712 17.8791C38.8645 -12.613 -3.62087 28.0431 5.15328 44.6752C13.9274 61.3072 59.1836 63.1552 81.8116 44.6752Z" fill="#F4683C"/>
<path d="M89 15.0507C91.4 14.6507 91.6667 16.5507 91.5 17.5507H93L95 21.0507H96L95 24.5507L96 25.5507L95 28.5507V30.5507L91.5 32.5507L89 34.0507V36.5507L85 38.0507V40.0507L83 41.0507L79.5 43.0507L78 44.0507L76 46.0507L73.5 47.0507H70.5L68.7295 48.0507L68 49.5507C67.5 50.0507 66 51.0507 64 51.0507C61.5 51.0507 62.5 51.0507 61.5 52.836C60.5 54.6213 60 52.836 58.5 52.836H54.5H49.5C48.1089 52.836 48.6328 53.9522 49.2315 54.7288C49.3515 54.8519 49.4406 54.9615 49.5 55.0507C49.413 54.9543 49.3214 54.8454 49.2315 54.7288C48.6789 54.1613 47.4721 53.3058 45.5 52.836C43.1 52.2642 44.5 53.0742 45.5 53.5507L42.5521 54.8141C42.477 54.9595 42.3044 55.0507 42 55.0507L42.5521 54.8141C42.847 54.243 41.6376 52.836 41 52.836C40.2 52.836 40.6667 53.3125 41 53.5507L34.5 55.0507C33.6667 54.5507 32 53.4077 32 52.836C32 52.2642 30 53.0742 29 53.5507H28H24.5C23 53.384 19.4 52.6507 17 51.0507C15.5 51.0507 14 50.5507 14 49.5507C14 48.7507 12.6667 48.2174 12 48.0507C11.3333 47.384 9.69999 45.8507 8.49999 45.0507C8.49999 44.0507 8.19999 41.8507 7 41.0507C5.80001 40.2507 5.16667 40.0507 5 40.0507V38.0507V36.5507C5.5 36.2174 6.6 35.2507 7 34.0507C7.5 32.5507 8.49999 31.5507 8.49999 30.5507C8.49999 29.5507 7.49999 28.5507 8.49999 28.5507C9.99999 28.5507 9.49999 26.5507 9.99999 25.5507C10.4 24.7507 11.5 24.5507 12 24.5507C12.3333 23.884 13.2 22.2507 14 21.0507C14.8 19.8507 15.3333 20.5507 15.5 21.0507L17 20.0507V17.5507C18.3333 17.2173 20.8 16.4507 20 16.0507C19.2 15.6507 19.6667 15.2173 20 15.0507L26.5 12.5507L30.5 10.5507L32 9.05068H36.5L40 7.05068L43.5 6.05068H47H48.5C50 6.05068 53.3 5.85068 54.5 5.05068C55.7 4.25068 57.6667 6.05068 58.5 7.05068L61.5 6.05068H64L66.5 9.05068H68H72.5H73.5L76 10.5507H79.5H81L83 12.5507V15.0507C84 15.2173 86.6 15.4507 89 15.0507Z" fill="#B5D2C4"/>
<path d="M57.0927 13.3689C59.7166 12.5363 62.4384 14.4446 63.4713 15.5028C63.3637 18.3653 61.7076 20.3282 60.893 20.9518C59.4255 21.7411 54.7658 20.6303 55.0582 20.1392C54.7074 17.935 56.0637 13.4215 57.0927 13.3689Z" fill="#F4683C"/>
<mask id="mask0" mask-type="alpha" maskUnits="userSpaceOnUse" x="53" y="11" width="12" height="13">
<path d="M57.0927 13.3689C59.7166 12.5363 62.4384 14.4446 63.4713 15.5028C63.3637 18.3653 61.7076 20.3282 60.893 20.9518C59.4255 21.7411 54.7658 20.6303 55.0582 20.1392C54.7074 17.935 56.0637 13.4215 57.0927 13.3689Z" fill="#F4683C"/>
</mask>
<g mask="url(#mask0)">
<path d="M60.8443 12.4029C59.9479 13.9606 57.4187 17.2744 54.4736 18.0679" stroke="#D3542C"/>
<path d="M64.8124 16.7286C62.9812 18.3812 58.2599 21.6367 54.0244 21.4387" stroke="#D3542C"/>
<path d="M64.5507 14.6606C62.7195 16.3132 57.9982 19.5687 53.7627 19.3707" stroke="#D3542C"/>
</g>
<path d="M77.5502 8.37266L68.8667 18.1886L73.6717 20.8485L81.5143 11.0841C84.1399 12.6114 86.0619 9.5397 85.5128 7.46322C85.0735 5.80205 83.0188 5.78715 82.0463 5.98736C82.2866 3.01853 78.4254 1.98884 76.4519 4.21972C74.8731 6.00444 76.5262 7.73198 77.5502 8.37266Z" fill="white"/>
<path d="M60.0403 21.8728C62.8451 19.8626 68.55 18.0632 69.8735 17.0507C72.177 19.0885 73.9181 18.6949 75.4971 18.8441C75.0482 20.3185 73.7709 24.7092 73.0653 27.8277C72.2452 31.452 66.9074 43.0593 58.989 36.0544C51.0706 29.0495 56.5343 24.3855 60.0403 21.8728Z" fill="#F4683C"/>
<path d="M12.1671 17.7123L21.0712 23.2282L18.0052 26.3694L9.75654 20.6994C8.09817 22.4724 5.92052 20.5633 5.86322 18.8476C5.81739 17.4751 7.38667 16.9911 8.17704 16.9207C7.31028 14.7036 10.0288 13.0274 12.0525 14.281C13.6714 15.2839 12.8034 16.9864 12.1671 17.7123Z" fill="white"/>
<path d="M28.6745 24.018C26.0653 23.1245 21.2848 23.0594 20.0389 22.5888C18.7445 24.6784 17.3213 24.7776 16.1471 25.2549C16.8297 26.2802 18.8173 29.3471 20.0747 31.5718C21.5359 34.1572 28.2912 41.8138 32.7409 34.6309C37.1906 27.4481 31.9359 25.1348 28.6745 24.018Z" fill="#F4683C"/>
<path d="M81.3433 28.0132C82.2713 27.5861 82.5402 28.0268 82.5587 28.3005L83.16 28.0963L84.2601 28.7027L84.661 28.5666L84.5585 29.5814L85.0447 29.6963L84.8995 30.5856L85.07 31.0877L83.8374 32.0662L82.963 32.7831L83.1762 33.4108L81.7005 34.3319L81.871 34.834L81.1545 35.3573L79.9218 36.3358L79.4058 36.7911L78.7745 37.5654L77.8575 38.1568L76.6548 38.5652L76.0303 39.0573L75.8657 39.5332C75.7079 39.7268 75.1918 40.182 74.39 40.4543C73.3878 40.7946 73.7887 40.6585 73.54 41.2428C73.2913 41.8271 72.9387 41.447 72.3373 41.6512L70.7338 42.1957L68.7293 42.8764C68.1716 43.0658 68.4769 43.2746 68.7831 43.3881C68.8417 43.4027 68.8867 43.4181 68.9181 43.4324C68.875 43.42 68.8291 43.4051 68.7831 43.3881C68.5132 43.3209 67.9564 43.2704 67.1258 43.4209C66.1149 43.6041 66.7452 43.6168 67.1867 43.6003L66.1126 44.3188C66.0949 44.3655 66.0335 44.4119 65.9115 44.4534L66.1126 44.3188C66.1822 44.1353 65.5774 43.9467 65.3218 44.0335C65.0011 44.1424 65.2288 44.1985 65.3827 44.2129L62.9048 45.4743C62.5281 45.4623 61.7625 45.4022 61.7138 45.2587C61.665 45.1151 60.9323 45.5907 60.572 45.8465L60.1711 45.9826L58.768 46.4591C58.1525 46.6214 56.6468 46.9274 55.5482 46.8524C54.9469 47.0566 54.3029 47.1353 54.2177 46.8843C54.1495 46.6834 53.5695 46.731 53.288 46.7799C52.9639 46.7033 52.1784 46.5407 51.6292 46.5033C51.5439 46.2522 51.2361 45.7407 50.6868 45.7033C50.1376 45.6658 49.8666 45.7018 49.7998 45.7245L49.6293 45.2224L49.5014 44.8458C49.6735 44.6941 50.032 44.3016 50.0901 43.9459C50.1627 43.5013 50.4783 43.1141 50.393 42.863C50.3078 42.612 49.8217 42.4971 50.2225 42.3609C50.8239 42.1568 50.4529 41.7227 50.5681 41.4036C50.6603 41.1483 51.0842 40.9484 51.2847 40.8803C51.3615 40.6675 51.5697 40.1395 51.7881 39.7294C52.0065 39.3192 52.28 39.4223 52.3894 39.5252L52.9055 39.0699L52.6924 38.4423C53.1985 38.1771 54.122 37.6488 53.7672 37.6573C53.4123 37.6658 53.5625 37.4935 53.6819 37.4063L56.0746 35.8938L57.5076 34.8472L57.9811 34.2664L59.7851 33.6538L61.0177 32.6752L62.3356 31.9477L63.7387 31.4713L64.34 31.2671C64.9414 31.0629 66.2472 30.5634 66.6601 30.1992C67.073 29.835 68.0148 30.0192 68.4342 30.1568L69.5516 29.4974L70.5538 29.157L71.8118 29.5699L72.4131 29.3657L74.2171 28.7531L74.618 28.6169L75.7481 28.6532L77.1512 28.1767L77.7526 27.9725L78.7248 28.2024L78.938 28.83C79.3531 28.7357 80.4153 28.4403 81.3433 28.0132Z" fill="#B5D2C4"/>
<path d="M46.9793 37.7588C47.9957 37.8624 48.0033 38.3786 47.8801 38.6237L48.5018 38.7534L49.1413 39.8346L49.5557 39.9211L48.9518 40.743L49.3122 41.089L48.7353 41.7812L48.6271 42.3003L47.0682 42.5169L45.9509 42.6901L45.8156 43.339L44.0766 43.3826L43.9683 43.9017L43.0853 43.9884L41.5264 44.2049L40.8506 44.3348L39.9135 44.6811L38.8232 44.7245L37.5798 44.4652L36.7919 44.5718L36.4084 44.898C36.1741 44.9846 35.4983 45.1145 34.6694 44.9416C33.6332 44.7255 34.0477 44.812 33.5366 45.1889C33.0255 45.5658 32.9149 45.0592 32.2932 44.9296L30.6354 44.5839L28.5631 44.1517C27.9865 44.0315 28.1433 44.3665 28.3494 44.6198C28.3924 44.6621 28.4234 44.6983 28.4432 44.7265C28.4124 44.694 28.3804 44.6578 28.3494 44.6198C28.1511 44.4247 27.6972 44.0984 26.9053 43.806C25.9415 43.4501 26.4779 43.7814 26.8666 43.9915L25.5765 44.0646C25.5375 44.0958 25.461 44.1046 25.3348 44.0783L25.5765 44.0646C25.7296 43.9419 25.3045 43.4722 25.0402 43.417C24.7087 43.3479 24.8763 43.5119 25.0016 43.6025L22.2264 43.43C21.9081 43.2282 21.2792 42.7876 21.3101 42.6392C21.3411 42.4908 20.4683 42.5281 20.0281 42.5654L19.6136 42.4789L18.163 42.1764C17.5504 42.0035 16.098 41.502 15.1899 40.8793C14.5682 40.7497 13.9736 40.4902 14.0277 40.2307C14.071 40.0231 13.5473 39.7694 13.28 39.6685C13.0398 39.4379 12.4458 38.8987 11.9918 38.5874C12.0459 38.3278 12.0407 37.7309 11.5866 37.4195C11.1326 37.1082 10.8809 37.0015 10.8118 36.9871L10.9201 36.468L11.0013 36.0787C11.2265 36.0354 11.7348 35.8796 11.9655 35.6027C12.2539 35.2566 12.7225 35.0835 12.7766 34.824C12.8308 34.5644 12.4704 34.2184 12.8849 34.3049C13.5066 34.4345 13.4076 33.8722 13.6689 33.6559C13.878 33.4828 14.3447 33.526 14.552 33.5692C14.7262 33.425 15.1738 33.076 15.5703 32.8337C15.9668 32.5914 16.15 32.8191 16.192 32.9633L16.8678 32.8334L17.0031 32.1846C17.5738 32.2133 18.6376 32.2275 18.3277 32.0545C18.0178 31.8816 18.2347 31.8094 18.3818 31.795L21.2111 31.7079L22.9772 31.5346L23.6801 31.2749L25.5451 31.6638L27.104 31.4473L28.6087 31.4902L30.0593 31.7927L30.681 31.9224C31.3026 32.052 32.6812 32.2853 33.2218 32.1814C33.7625 32.0775 34.4801 32.7147 34.7714 33.0462L36.0689 33.046L37.105 33.2621L37.9788 34.2568L38.6005 34.3864L40.4655 34.7754L40.88 34.8618L41.8349 35.4672L43.2855 35.7697L43.9072 35.8994L44.6279 36.5913L44.4926 37.2402C44.898 37.3699 45.963 37.6552 46.9793 37.7588Z" fill="#B5D2C4"/>
<path d="M52.1248 39.7399C50.2906 40.3698 47.5068 39.8799 46.3441 39.5563C44.2065 37.9244 42.9786 34.7315 42.6318 33.339L44.1086 33.6205L43.9822 32.6781L44.9245 32.5517L45.3325 32.0173L47.0622 34.1835L48.0332 30.6956L49.2284 32.4538L50.5788 31.793L50.2973 33.2698L52.182 33.0169L49.7342 36.2233L51.211 36.5048L50.9295 37.9816L51.8719 37.8552C51.778 38.3474 51.6973 39.4135 52.1248 39.7399Z" fill="#D3542C"/>
<path d="M40.1248 25.0619C38.2906 25.6918 35.5068 25.2019 34.3441 24.8783C32.2065 23.2464 30.9786 20.0535 30.6318 18.661L32.1086 18.9425L31.9822 18.0002L32.9245 17.8737L33.3325 17.3393L35.0622 19.5056L36.0332 16.0176L37.2284 17.7759L38.5788 17.115L38.2973 18.5918L40.182 18.3389L37.7342 21.5454L39.211 21.8269L38.9295 23.3036L39.8719 23.1772C39.778 23.6695 39.6973 24.7356 40.1248 25.0619Z" fill="#D3542C"/>
<path d="M37.1445 46.1105C38.8033 46.5547 41.2325 45.9517 42.2398 45.5947C44.0283 44.0225 44.9178 41.1268 45.1389 39.8755L43.8516 40.2145L43.9056 39.3743L43.0654 39.3203L42.6724 38.8731L41.2769 40.8925L40.2058 37.8707L39.2575 39.497L38.0242 38.9958L38.3632 40.2832L36.6828 40.175L39.0412 42.8578L37.7539 43.1968L38.0929 44.4842L37.2527 44.4301C37.3657 44.8592 37.5022 45.796 37.1445 46.1105Z" fill="#D3542C"/>
<path d="M79.0001 27.3513C78.6001 25.7513 80.8334 25.018 82.0001 24.8513C87.0001 33.8513 74.0001 35.3513 77.0001 34.3513C80.0001 33.3513 79.5001 29.3513 79.0001 27.3513Z" fill="#D3542C"/>
<path d="M79.5 22.3513C81.1 22.3513 81.1667 24.3513 81 25.3513C80.6 24.1513 79.1667 23.518 78.5 23.3513L79.5 22.3513Z" fill="#F4683C"/>
<path d="M20.3751 28.7363C17.6012 29.2019 16.0155 32.2054 15.5694 33.6489C17.001 36.2016 19.4216 37.2148 20.4529 37.4023C22.155 37.4362 25.8745 34.2549 25.3798 33.9445C24.6718 31.7768 21.3352 28.3047 20.3751 28.7363Z" fill="#D3542C"/>
<mask id="mask1" mask-type="alpha" maskUnits="userSpaceOnUse" x="14" y="27" width="13" height="13">
<path d="M20.3751 28.7363C17.6012 29.2019 16.0155 32.2054 15.5694 33.6489C17.001 36.2016 19.4216 37.2148 20.4529 37.4023C22.155 37.4362 25.8745 34.2549 25.3798 33.9445C24.6718 31.7768 21.3352 28.3047 20.3751 28.7363Z" fill="#F4683C"/>
</mask>
<g mask="url(#mask1)">
<path d="M16.5138 29.6061C18.0548 30.6048 21.8987 32.4395 24.9464 31.7887" stroke="#F4683C"/>
<path d="M14.9213 35.3885C17.3564 36.0379 23.1665 36.7982 26.9255 34.6445" stroke="#F4683C"/>
<path d="M14.1957 33.386C16.6308 34.0354 22.4409 34.7957 26.1999 32.642" stroke="#F4683C"/>
</g>
<path d="M66.3751 28.7363C63.6012 29.2019 62.0155 32.2054 61.5694 33.6489C63.001 36.2016 65.4216 37.2148 66.4529 37.4023C68.155 37.4362 71.8745 34.2549 71.3798 33.9445C70.6718 31.7768 67.3352 28.3047 66.3751 28.7363Z" fill="#D3542C"/>
<mask id="mask2" mask-type="alpha" maskUnits="userSpaceOnUse" x="60" y="27" width="13" height="13">
<path d="M66.3751 28.7363C63.6012 29.2019 62.0155 32.2054 61.5694 33.6489C63.001 36.2016 65.4216 37.2148 66.4529 37.4023C68.155 37.4362 71.8745 34.2549 71.3798 33.9445C70.6718 31.7768 67.3352 28.3047 66.3751 28.7363Z" fill="#F4683C"/>
</mask>
<g mask="url(#mask2)">
<path d="M62.5138 29.6061C64.0548 30.6048 67.8987 32.4395 70.9464 31.7887" stroke="#F4683C"/>
<path d="M60.9213 35.3885C63.3564 36.0379 69.1665 36.7982 72.9255 34.6445" stroke="#F4683C"/>
<path d="M60.1957 33.386C62.6308 34.0354 68.4409 34.7957 72.1999 32.642" stroke="#F4683C"/>
</g>
<path d="M50.0927 37.3689C52.7166 36.5363 55.4384 38.4446 56.4713 39.5028C56.3637 42.3653 54.7076 44.3282 53.893 44.9518C52.4255 45.7411 47.7658 44.6303 48.0582 44.1392C47.7074 41.935 49.0637 37.4215 50.0927 37.3689Z" fill="#F4683C"/>
<mask id="mask3" mask-type="alpha" maskUnits="userSpaceOnUse" x="46" y="35" width="12" height="13">
<path d="M50.0927 37.3689C52.7166 36.5363 55.4384 38.4446 56.4713 39.5028C56.3637 42.3653 54.7076 44.3282 53.893 44.9518C52.4255 45.7411 47.7658 44.6303 48.0582 44.1392C47.7074 41.935 49.0637 37.4215 50.0927 37.3689Z" fill="#F4683C"/>
</mask>
<g mask="url(#mask3)">
<path d="M53.8443 36.4029C52.9479 37.9606 50.4187 41.2744 47.4736 42.0679" stroke="#D3542C"/>
<path d="M57.8124 40.7286C55.9812 42.3812 51.2599 45.6367 47.0244 45.4387" stroke="#D3542C"/>
<path d="M57.5507 38.6606C55.7195 40.3132 50.9982 43.5687 46.7627 43.3707" stroke="#D3542C"/>
</g>
</svg>
