<svg width="101" height="72" viewBox="0 0 101 72" fill="none" xmlns="http://www.w3.org/2000/svg">
<path d="M37.7298 10.913C55.415 3.39542 65.8166 8.88059 68.3389 12.7391C70.8611 16.5976 74.9633 20.3952 69.1309 33.2786C61.8403 49.3829 23.2485 70.3334 13.105 57.5913C2.96159 44.8493 15.6233 20.3099 37.7298 10.913Z" fill="#B5D2C4"/>
<path d="M68.4059 18.591C70.2288 16.622 67.1677 12.4678 65.4093 10.6368C56.4998 1.17 26.6697 11.3394 16.5108 26.9214C6.35191 42.5033 9.81646 50.2813 12.3996 55.7198C14.9828 61.1583 19.7162 56.7035 25.3919 56.1682C31.0676 55.6329 33.455 47.7875 40.7716 48.7712C48.0882 49.7549 56.8019 45.9378 57.6159 42.4254C58.4298 38.9129 57.6703 39.7333 63.5158 35.3939C69.3612 31.0545 68.5952 27.6029 67.185 23.8598C65.7748 20.1166 66.1274 21.0524 68.4059 18.591Z" fill="#F4683C"/>
<path d="M53.9066 11.2625C53.5156 12.0402 53.0315 14.1141 54.2229 16.1871C55.7122 18.7785 55.9449 9.8641 53.9066 11.2625Z" fill="#B5D2C4"/>
<path d="M43.6132 15.1405C43.2222 15.9183 42.738 17.9921 43.9294 20.0652C45.4187 22.6565 45.6515 13.7422 43.6132 15.1405Z" fill="#B5D2C4"/>
<path d="M51.0852 31.4499C50.2158 31.404 48.1221 31.7931 46.7017 33.7165C44.9262 36.1208 53.1842 32.7553 51.0852 31.4499Z" fill="#B5D2C4"/>
<path d="M50.7447 21.4571C50.1506 22.0934 49.1024 23.9471 49.6622 26.2717C50.362 29.1774 53.0941 20.6888 50.7447 21.4571Z" fill="#B5D2C4"/>
<path d="M35.8001 18.256C34.9507 18.4465 33.0397 19.3863 32.1911 21.6217C31.1305 24.4159 38.1736 18.9464 35.8001 18.256Z" fill="#B5D2C4"/>
<path d="M60.5124 23.0613C59.7582 22.6266 57.7154 22.025 55.5777 23.0962C52.9057 24.4353 61.7923 25.176 60.5124 23.0613Z" fill="#B5D2C4"/>
<path d="M28.2736 46.8934C29.0386 46.478 30.6199 45.0515 30.8249 42.6693C31.0812 39.6915 25.8018 46.8782 28.2736 46.8934Z" fill="#B5D2C4"/>
<path d="M39.1128 38.3697C39.7893 37.8217 41.0839 36.1309 40.8512 33.7512C40.5603 30.7766 36.6797 38.8054 39.1128 38.3697Z" fill="#B5D2C4"/>
<path d="M20.1842 32.1236C21.0525 32.1857 23.1531 31.8357 24.6091 29.9391C26.4291 27.5683 18.1099 30.7792 20.1842 32.1236Z" fill="#B5D2C4"/>
<path d="M22.6082 41.0649C23.3738 40.6506 24.9572 39.2265 25.1657 36.8446C25.4265 33.8672 20.1364 41.046 22.6082 41.0649Z" fill="#B5D2C4"/>
<path d="M16.9594 51.1734C17.8176 51.3195 19.9423 51.1753 21.5757 49.4292C23.6175 47.2465 15.0256 49.6338 16.9594 51.1734Z" fill="#B5D2C4"/>
<path d="M47.5373 43.0676C47.0547 42.3431 45.4917 40.8966 43.1007 40.9068C40.1119 40.9195 47.7445 45.5308 47.5373 43.0676Z" fill="#B5D2C4"/>
<path d="M45.7292 25.0559C43.8086 28.3441 38.3442 35.2242 31.8514 36.4393C32.0502 32.7739 35.1041 25.3656 45.7292 25.0559Z" fill="#E5E5E5"/>
<path d="M71.5001 27.5293C90.7001 26.7293 98.5001 35.5293 99.5001 40.0293C100.5 44.5293 103 49.5293 93.0001 59.5293C80.5001 72.0293 37.0001 78.0293 32.0001 62.5293C27.0001 47.0293 47.5001 28.5293 71.5001 27.5293Z" fill="#F4683C"/>
<path d="M97.4999 45.5293C99.8999 44.3293 98.4999 39.3627 97.4999 37.0293C92.4999 25.0293 60.9999 24.0293 45.9999 35.0293C30.9999 46.0293 31.4999 54.5293 31.9999 60.5293C32.4999 66.5293 38.4999 64.0293 43.9999 65.5293C49.4999 67.0293 54.4999 60.5293 60.9999 64.0293C67.4999 67.5293 76.9999 67.0293 78.9999 64.0293C80.9999 61.0293 79.9999 61.5293 86.9999 59.5293C93.9999 57.5293 94.4999 54.0293 94.4999 50.0293C94.4999 46.0293 94.4999 47.0293 97.4999 45.5293Z" fill="#B5D2C4"/>
<path d="M86.5152 33.5596C85.8751 34.1496 84.6909 35.9196 85.075 38.2796C85.5551 41.2295 88.9156 32.9696 86.5152 33.5596Z" fill="#F4683C"/>
<path d="M75.5152 33.5596C74.8751 34.1496 73.6909 35.9196 74.075 38.2796C74.5551 41.2295 77.9156 32.9696 75.5152 33.5596Z" fill="#F4683C"/>
<path d="M76.7583 51.4561C75.9609 51.1067 73.8645 50.7327 71.8572 52.0319C69.3481 53.6559 78.2623 53.4178 76.7583 51.4561Z" fill="#F4683C"/>
<path d="M79.9621 41.9848C79.1818 42.3708 77.5473 43.736 77.2517 46.1087C76.8822 49.0745 82.4315 42.0942 79.9621 41.9848Z" fill="#F4683C"/>
<path d="M67.1053 33.7206C66.2433 33.5993 64.1236 33.8051 62.5415 35.5978C60.5639 37.8388 69.083 35.2034 67.1053 33.7206Z" fill="#F4683C"/>
<path d="M88.5372 46.9296C87.9846 46.2569 86.285 44.9737 83.907 45.2225C80.9344 45.5336 88.9893 49.3597 88.5372 46.9296Z" fill="#F4683C"/>
<path d="M49.9665 57.8659C50.8289 57.7468 52.8115 56.9694 53.8432 54.8125C55.1328 52.1162 47.6588 56.9802 49.9665 57.8659Z" fill="#F4683C"/>
<path d="M63.1149 53.7109C63.9411 53.4365 65.7487 52.3107 66.3699 50.0017C67.1463 47.1156 60.6844 53.2608 63.1149 53.7109Z" fill="#F4683C"/>
<path d="M47.6034 41.1924C48.3941 41.5566 50.4832 41.9696 52.5144 40.7081C55.0533 39.1312 46.1362 39.2031 47.6034 41.1924Z" fill="#F4683C"/>
<path d="M46.7193 50.4143C47.5818 50.2965 49.5656 49.522 50.6005 47.3666C51.8942 44.6723 44.4129 49.5252 46.7193 50.4143Z" fill="#F4683C"/>
<path d="M37.87 57.8823C38.6216 58.3216 40.6607 58.9357 42.8048 57.8776C45.485 56.5549 36.6031 55.7598 37.87 57.8823Z" fill="#F4683C"/>
<path d="M69.3419 61.0771C69.1457 60.2289 68.1931 58.3243 65.952 57.4909C63.1507 56.4491 68.6675 63.4551 69.3419 61.0771Z" fill="#F4683C"/>
<path d="M74 43.5844C71.0435 45.9844 63.5043 50.4964 57 49.3444C58.4783 45.9844 63.9478 40.1284 74 43.5844Z" fill="#E5E5E5"/>
</svg>
