<svg width="101" height="60" viewBox="0 0 101 60" fill="none" xmlns="http://www.w3.org/2000/svg">
<path d="M84.2487 45.4641C103.849 29.4641 103.749 21.3424 95.2487 16.4641C37.7487 -16.5359 -8.25131 27.4641 1.24869 45.4641C10.7487 63.4641 59.7487 65.4641 84.2487 45.4641Z" fill="#D3542C"/>
<path d="M81.8116 44.3532C99.9141 29.5691 99.8217 22.0646 91.9712 17.5571C38.8645 -12.935 -3.62087 27.7211 5.15328 44.3532C13.9274 60.9852 59.1836 62.8332 81.8116 44.3532Z" fill="#F4683C"/>
<path d="M89 14.7286C91.4 14.3286 91.6667 16.2286 91.5 17.2286H93L95 20.7287H96L95 24.2287L96 25.2287L95 28.2287V30.2287L91.5 32.2287L89 33.7287V36.2287L85 37.7287V39.7287L83 40.7287L79.5 42.7287L78 43.7287L76 45.7287L73.5 46.7287H70.5L68.7295 47.7287L68 49.2287C67.5 49.7287 66 50.7287 64 50.7287C61.5 50.7287 62.5 50.7287 61.5 52.514C60.5 54.2993 60 52.514 58.5 52.514H54.5H49.5C48.1089 52.514 48.6328 53.6301 49.2315 54.4068C49.3515 54.5299 49.4406 54.6395 49.5 54.7287C49.413 54.6323 49.3214 54.5234 49.2315 54.4068C48.6789 53.8392 47.4721 52.9838 45.5 52.514C43.1 51.9422 44.5 52.7522 45.5 53.2287L42.5521 54.492C42.477 54.6375 42.3044 54.7287 42 54.7287L42.5521 54.492C42.847 53.921 41.6376 52.514 41 52.514C40.2 52.514 40.6667 52.9904 41 53.2287L34.5 54.7287C33.6667 54.2287 32 53.0857 32 52.514C32 51.9422 30 52.7522 29 53.2287H28H24.5C23 53.062 19.4 52.3287 17 50.7287C15.5 50.7287 14 50.2287 14 49.2287C14 48.4287 12.6667 47.8953 12 47.7287C11.3333 47.062 9.69999 45.5287 8.49999 44.7287C8.49999 43.7287 8.19999 41.5287 7 40.7287C5.80001 39.9287 5.16667 39.7287 5 39.7287V37.7287V36.2287C5.5 35.8953 6.6 34.9287 7 33.7287C7.5 32.2287 8.49999 31.2287 8.49999 30.2287C8.49999 29.2287 7.49999 28.2287 8.49999 28.2287C9.99999 28.2287 9.49999 26.2287 9.99999 25.2287C10.4 24.4287 11.5 24.2287 12 24.2287C12.3333 23.562 13.2 21.9287 14 20.7287C14.8 19.5287 15.3333 20.2287 15.5 20.7287L17 19.7287V17.2286C18.3333 16.8953 20.8 16.1287 20 15.7287C19.2 15.3287 19.6667 14.8953 20 14.7286L26.5 12.2287L30.5 10.2287L32 8.72866H36.5L40 6.72866L43.5 5.72866H47H48.5C50 5.72866 53.3 5.52866 54.5 4.72866C55.7 3.92866 57.6667 5.72866 58.5 6.72866L61.5 5.72866H64L66.5 8.72866H68H72.5H73.5L76 10.2287H79.5H81L83 12.2287V14.7286C84 14.8953 86.6 15.1286 89 14.7286Z" fill="#B5D2C4"/>
<path d="M77.5504 8.05064L68.8669 17.8666L73.6719 20.5265L81.5145 10.7621C84.1401 12.2894 86.0622 9.21768 85.5131 7.1412C85.0738 5.48003 83.019 5.46513 82.0466 5.66533C82.2869 2.69651 78.4257 1.66682 76.4522 3.8977C74.8733 5.68241 76.5265 7.40996 77.5504 8.05064Z" fill="white"/>
<path d="M60.0403 21.5507C62.8451 19.5406 68.55 17.7411 69.8735 16.7286C72.177 18.7664 73.9181 18.3728 75.4971 18.522C75.0482 19.9964 73.7709 24.3871 73.0653 27.5057C72.2452 31.1299 66.9074 42.7372 58.989 35.7323C51.0706 28.7274 56.5343 24.0634 60.0403 21.5507Z" fill="#F4683C"/>
<path d="M12.1671 17.3903L21.0712 22.9063L18.0052 26.0474L9.75654 20.3775C8.09817 22.1504 5.92052 20.2413 5.86322 18.5257C5.81739 17.1532 7.38667 16.6692 8.17704 16.5987C7.31028 14.3816 10.0288 12.7054 12.0525 13.959C13.6714 14.9619 12.8034 16.6644 12.1671 17.3903Z" fill="white"/>
<path d="M28.6745 23.696C26.0653 22.8026 21.2848 22.7374 20.0389 22.2668C18.7445 24.3564 17.3213 24.4556 16.1471 24.933C16.8297 25.9582 18.8173 29.0251 20.0747 31.2498C21.5359 33.8352 28.2912 41.4919 32.7409 34.309C37.1906 27.1261 31.9359 24.8129 28.6745 23.696Z" fill="#F4683C"/>
<path d="M81.3435 27.6911C82.2716 27.264 82.5405 27.7047 82.5589 27.9784L83.1602 27.7742L84.2604 28.3806L84.6613 28.2445L84.5588 29.2593L85.0449 29.3742L84.8998 30.2635L85.0703 30.7656L83.8376 31.7442L82.9633 32.4611L83.1764 33.0887L81.7007 34.0098L81.8712 34.5119L81.1547 35.0352L79.9221 36.0138L79.406 36.469L78.7747 37.2434L77.8577 37.8347L76.6551 38.2431L76.0306 38.7352L75.866 39.2111C75.7082 39.4047 75.1921 39.8599 74.3903 40.1322C73.3881 40.4725 73.789 40.3364 73.5403 40.9207C73.2916 41.505 72.9389 41.1249 72.3376 41.3291L70.734 41.8736L68.7296 42.5543C68.1719 42.7437 68.4771 42.9526 68.7833 43.066C68.8419 43.0806 68.887 43.096 68.9184 43.1103C68.8753 43.0979 68.8293 43.0831 68.7833 43.066C68.5134 42.9988 67.9567 42.9483 67.126 43.0988C66.1151 43.282 66.7454 43.2948 67.187 43.2782L66.1129 43.9967C66.0952 44.0434 66.0337 44.0898 65.9117 44.1313L66.1129 43.9967C66.1824 43.8132 65.5776 43.6246 65.322 43.7114C65.0013 43.8203 65.229 43.8764 65.3829 43.8908L62.905 45.1523C62.5283 45.1402 61.7628 45.0801 61.714 44.9366C61.6653 44.793 60.9325 45.2687 60.5723 45.5244L60.1714 45.6605L58.7683 46.137C58.1527 46.2994 56.647 46.6053 55.5485 46.5304C54.9471 46.7346 54.3032 46.8132 54.2179 46.5622C54.1497 46.3613 53.5697 46.409 53.2883 46.4579C52.9642 46.3813 52.1787 46.2187 51.6294 46.1812C51.5442 45.9301 51.2363 45.4187 50.6871 45.3812C50.1378 45.3437 49.8669 45.3797 49.8 45.4024L49.6295 44.9003L49.5017 44.5237C49.6737 44.372 50.0323 43.9795 50.0903 43.6238C50.1629 43.1792 50.4785 42.792 50.3933 42.541C50.308 42.2899 49.8219 42.175 50.2228 42.0389C50.8241 41.8347 50.4532 41.4006 50.5684 41.0815C50.6605 40.8262 51.0845 40.6263 51.2849 40.5582C51.3617 40.3455 51.5699 39.8174 51.7883 39.4073C52.0067 38.9971 52.2802 39.1002 52.3896 39.2031L52.9057 38.7478L52.6926 38.1202C53.1987 37.855 54.1222 37.3268 53.7674 37.3352C53.4126 37.3437 53.5627 37.1714 53.6822 37.0842L56.0748 35.5717L57.5079 34.5251L57.9813 33.9443L59.7853 33.3317L61.018 32.3532L62.3358 31.6257L63.7389 31.1492L64.3403 30.945C64.9416 30.7408 66.2475 30.2414 66.6604 29.8772C67.0732 29.513 68.0151 29.6971 68.4344 29.8347L69.5518 29.1753L70.5541 28.835L71.812 29.2478L72.4134 29.0436L74.2174 28.431L74.6183 28.2949L75.7484 28.3311L77.1515 27.8547L77.7528 27.6505L78.7251 27.8803L78.9382 28.5079C79.3533 28.4136 80.4155 28.1183 81.3435 27.6911Z" fill="#B5D2C4"/>
<path d="M46.9795 37.4367C47.9959 37.5404 48.0036 38.0565 47.8804 38.3017L48.5021 38.4313L49.1415 39.5126L49.556 39.599L48.9521 40.421L49.3124 40.767L48.7356 41.4592L48.6273 41.9783L47.0685 42.1949L45.9512 42.3681L45.8158 43.017L44.0768 43.0606L43.9686 43.5797L43.0855 43.6663L41.5267 43.8829L40.8509 44.0128L39.9137 44.359L38.8234 44.4025L37.5801 44.1432L36.7922 44.2497L36.4086 44.576C36.1743 44.6625 35.4985 44.7924 34.6696 44.6196C33.6335 44.4035 34.0479 44.4899 33.5368 44.8669C33.0257 45.2438 32.9152 44.7372 32.2935 44.6076L30.6356 44.2618L28.5634 43.8297C27.9868 43.7094 28.1436 44.0445 28.3497 44.2978C28.3927 44.3401 28.4237 44.3762 28.4435 44.4045C28.4126 44.372 28.3806 44.3358 28.3497 44.2978C28.1514 44.1027 27.6975 43.7764 26.9055 43.484C25.9418 43.1281 26.4782 43.4594 26.8669 43.6695L25.5767 43.7426C25.5377 43.7738 25.4612 43.7826 25.3351 43.7563L25.5767 43.7426C25.7298 43.6198 25.3048 43.1501 25.0405 43.095C24.7089 43.0259 24.8765 43.1899 25.0018 43.2805L22.2266 43.108C21.9083 42.9062 21.2794 42.4655 21.3104 42.3171C21.3413 42.1687 20.4686 42.2061 20.0283 42.2433L19.6139 42.1569L18.1633 41.8544C17.5506 41.6815 16.0983 41.18 15.1902 40.5573C14.5685 40.4276 13.9739 40.1682 14.028 39.9087C14.0713 39.701 13.5475 39.4474 13.2803 39.3465C13.04 39.1158 12.4461 38.5767 11.992 38.2654C12.0462 38.0058 12.0409 37.4089 11.5869 37.0975C11.1328 36.7862 10.8812 36.6795 10.8121 36.6651L10.9203 36.146L11.0015 35.7567C11.2268 35.7134 11.735 35.5576 11.9657 35.2807C12.2542 34.9346 12.7227 34.7615 12.7769 34.5019C12.831 34.2424 12.4707 33.8964 12.8851 33.9829C13.5068 34.1125 13.4078 33.5502 13.6692 33.3339C13.8783 33.1608 14.345 33.204 14.5522 33.2472C14.7265 33.103 15.1741 32.754 15.5706 32.5116C15.9671 32.2693 16.1502 32.4971 16.1923 32.6413L16.8681 32.5114L17.0034 31.8625C17.574 31.8913 18.6379 31.9055 18.3279 31.7325C18.018 31.5595 18.2349 31.4874 18.3821 31.473L21.2114 31.3859L22.9774 31.2125L23.6803 30.9529L25.5454 31.3418L27.1042 31.1252L28.6089 31.1682L30.0595 31.4707L30.6812 31.6004C31.3029 31.73 32.6814 31.9633 33.2221 31.8594C33.7627 31.7555 34.4804 32.3927 34.7716 32.7242L36.0691 32.724L37.1053 32.9401L37.979 33.9348L38.6007 34.0644L40.4658 34.4534L40.8802 34.5398L41.8352 35.1452L43.2858 35.4477L43.9075 35.5773L44.6281 36.2693L44.4928 36.9182C44.8983 37.0478 45.9632 37.3331 46.9795 37.4367Z" fill="#B5D2C4"/>
<path d="M55.125 40.2957C53.2909 40.9256 50.507 40.4357 49.3443 40.112C47.2067 38.4802 45.9788 35.2873 45.6321 33.8948L47.1089 34.1763L46.9824 33.2339L47.9248 33.1075L48.3327 32.5731L50.0624 34.7393L51.0334 31.2513L52.2287 33.0096L53.579 32.3488L53.2975 33.8255L55.1822 33.5726L52.7345 36.7791L54.2113 37.0606L53.9298 38.5374L54.8721 38.411C54.7783 38.9032 54.6975 39.9693 55.125 40.2957Z" fill="#D3542C"/>
<path d="M40.125 24.7399C38.2909 25.3698 35.507 24.8799 34.3443 24.5563C32.2067 22.9244 30.9788 19.7315 30.6321 18.339L32.1089 18.6205L31.9824 17.6781L32.9248 17.5517L33.3327 17.0173L35.0624 19.1835L36.0334 15.6956L37.2287 17.4538L38.579 16.793L38.2975 18.2698L40.1822 18.0169L37.7345 21.2233L39.2113 21.5048L38.9298 22.9816L39.8721 22.8552C39.7783 23.3474 39.6975 24.4135 40.125 24.7399Z" fill="#D3542C"/>
<path d="M37.1443 45.7885C38.8031 46.2327 41.2323 45.6297 42.2396 45.2727C44.0281 43.7004 44.9175 40.8048 45.1386 39.5535L43.8513 39.8925L43.9054 39.0523L43.0652 38.9982L42.6721 38.5511L41.2766 40.5705L40.2056 37.5487L39.2573 39.175L38.024 38.6738L38.363 39.9611L36.6826 39.853L39.041 42.5358L37.7536 42.8748L38.0926 44.1621L37.2524 44.1081C37.3654 44.5372 37.502 45.474 37.1443 45.7885Z" fill="#D3542C"/>
<path d="M79.0001 27.0293C78.6001 25.4293 80.8334 24.696 82.0001 24.5293C87.0001 33.5293 74.0001 35.0293 77.0001 34.0293C80.0001 33.0293 79.5001 29.0293 79.0001 27.0293Z" fill="#D3542C"/>
<path d="M79.5 22.0293C81.1 22.0293 81.1667 24.0293 81 25.0293C80.6 23.8293 79.1667 23.196 78.5 23.0293L79.5 22.0293Z" fill="#F4683C"/>
</svg>
