<svg width="102" height="72" viewBox="0 0 102 72" fill="none" xmlns="http://www.w3.org/2000/svg">
<path d="M2.90644 24.8529C18.6789 10.9505 49.7281 4.21048 63.2812 2.57825C63.3634 17.0059 53.9184 36.2489 49.1857 44.067C28.7325 40.0283 9.81072 29.5748 2.90644 24.8529Z" fill="#D3542C"/>
<path d="M57.2365 5.35405C59.1916 4.11172 62.4327 2.91977 63.8089 2.47909C65.1634 3.86609 63.0496 4.26288 60.9357 4.65967C58.8219 5.05646 55.9487 7.23704 55.1893 9.02082C54.43 10.8046 51.3584 11.9283 49.3438 12.8535C47.3291 13.7788 45.2153 14.1756 44.9844 15.8601C44.7535 17.5447 43.1681 17.8423 41.5827 18.1399C39.9974 18.4375 39.6998 16.8521 41.2851 16.5545C42.8705 16.2569 42.7713 15.7285 43.6299 14.4732C44.4884 13.2178 48.5177 11.3673 51.0608 10.3429C53.604 9.31841 54.7926 6.90697 57.2365 5.35405Z" fill="#F4683C"/>
<path d="M32.1762 17.2163C35.442 16.6028 40.4589 16.6309 42.5592 16.7216C43.7936 19.0043 40.6956 18.5275 37.5976 18.0507C34.4997 17.5739 29.5381 18.9031 27.6745 20.709C25.8109 22.5149 21.0591 22.4811 17.8562 22.6858C14.6534 22.8905 11.5554 22.4137 10.4663 24.3388C9.37719 26.2639 7.05371 25.9063 4.73024 25.5487C2.40676 25.1911 2.72137 23.1468 5.04485 23.5044C7.36833 23.862 7.4732 23.1806 9.23193 22.0561C10.9907 20.9316 17.3963 20.5223 21.3737 20.4369C25.351 20.3514 28.094 17.9832 32.1762 17.2163Z" fill="#F4683C"/>
<path d="M42.9367 24.6215C42.4088 22.314 42.2481 18.7233 42.2337 17.2163C43.7188 16.2255 43.5103 18.4644 43.3017 20.7034C43.0931 22.9423 44.1612 26.4294 45.4378 27.6775C46.7144 28.9256 46.8618 32.3269 47.1135 34.6087C47.3653 36.8906 47.1567 39.1295 48.4854 39.8179C49.8142 40.5063 49.6578 42.1855 49.5013 43.8647C49.3449 45.5439 47.964 45.4153 48.1204 43.7361C48.2769 42.0568 47.8166 42.014 47.0003 40.8087C46.184 39.6035 45.6805 35.0398 45.4809 32.1983C45.2813 29.3567 43.5966 27.506 42.9367 24.6215Z" fill="#F4683C"/>
<path d="M37.0288 25.0517C55.0953 14.2979 86.855 13.4017 100.477 14.2979C97.8957 28.493 85.0627 45.6633 78.9689 52.474C59.6119 44.7313 42.9434 30.9663 37.0288 25.0517Z" fill="#F4683C"/>
<path d="M94.0245 15.9109C96.1753 15.0506 99.5806 14.4771 101.014 14.2979C102.09 15.9109 99.9391 15.9109 97.7883 15.9109C95.6376 15.9109 92.4114 17.524 91.336 19.1371C90.2606 20.7502 87.0345 21.2879 84.8837 21.8256C82.7329 22.3632 80.5822 22.3632 80.0445 23.9763C79.5068 25.5894 77.8937 25.5894 76.2806 25.5894C74.6675 25.5894 74.6675 23.9763 76.2806 23.9763C77.8937 23.9763 77.8937 23.4386 78.9691 22.3632C80.0445 21.2879 84.346 20.2125 87.0345 19.6748C89.7229 19.1371 91.336 16.9863 94.0245 15.9109Z" fill="#D3542C"/>
<path d="M67.2052 22.9464C70.5281 22.9459 75.4538 23.899 77.5013 24.3757C78.2933 26.8469 75.3365 25.8068 72.3797 24.7666C69.4228 23.7265 64.3012 24.1175 62.1364 25.5486C59.9717 26.9797 55.3076 26.0699 52.122 25.6801C48.9364 25.2904 45.9795 24.2503 44.554 25.9414C43.1284 27.6325 40.9108 26.8524 38.6931 26.0723C36.4755 25.2922 37.1619 23.3411 39.3795 24.1212C41.5971 24.9013 41.8259 24.2509 43.7619 23.4702C45.6979 22.6894 52.0692 23.4689 55.994 24.1187C59.9188 24.7685 63.0516 22.947 67.2052 22.9464Z" fill="#D3542C"/>
<path d="M76.4148 32.2093C76.3217 29.844 76.8261 26.2852 77.09 24.8015C78.7325 24.1017 78.1144 26.2637 77.4964 28.4258C76.8783 30.5878 77.2847 34.2121 78.3091 35.6743C79.3336 37.1365 78.851 40.5066 78.6774 42.7957C78.5038 45.0848 77.8858 47.2468 79.0647 48.1685C80.2437 49.0902 79.7801 50.7117 79.3166 52.3333C78.8531 53.9548 77.5196 53.5736 77.9832 51.9521C78.4467 50.3306 78.0022 50.2035 77.4223 48.8684C76.8423 47.5332 77.1894 42.955 77.5175 40.1254C77.8456 37.2958 76.5312 35.166 76.4148 32.2093Z" fill="#D3542C"/>
<path d="M2.61621 43.9028C13.8522 37.2147 30.3846 34.3394 44.5563 33.3369C45.094 34.2436 45.8467 36.3797 44.5563 37.6702C42.9432 39.2833 40.7924 40.0407 40.2547 41.9717C39.717 43.9028 38.104 48.9617 36.4909 50.0371C34.8778 51.1125 34.8778 51.1125 34.8778 54.3387C34.8778 57.5648 38.6417 60.791 37.5663 62.9417C36.706 64.6624 35.4155 66.2851 34.8778 66.8815C19.7998 59.0931 7.51678 48.8033 2.61621 43.9028Z" fill="#F4683C"/>
<path d="M39.178 36.563C40.8986 36.563 42.7626 35.4876 43.4796 34.95C45.0921 34.95 45.6309 36.563 45.0932 38.1761C44.5555 39.7892 45.0932 40.8646 44.5555 42.4777C44.1253 43.7681 43.6593 44.0907 43.4801 44.0907C43.1217 45.883 42.5123 49.8978 42.9424 51.6184C43.4801 53.7692 41.3293 53.7692 40.254 55.3823C39.1786 56.9954 38.1032 61.2969 37.5655 63.9854C37.0278 66.6738 35.4147 65.5985 34.3393 65.5985C33.2639 65.5985 33.8011 64.5231 32.7263 63.9854C31.6514 63.4477 32.1886 62.3723 30.5749 60.2215C29.284 58.5009 30.037 58.4292 30.5749 58.6084C30.2165 57.8915 29.2845 56.2426 28.4241 55.3823C27.5638 54.522 27.7072 52.8731 27.8865 52.1561C27.8865 51.6184 27.994 50.328 28.4241 49.4677C28.9618 48.3923 28.4241 47.8546 28.4241 46.2415C28.4241 44.6284 29.4995 45.1661 30.5749 43.553C31.6503 41.94 33.8011 40.8646 33.8011 38.7138C33.8011 36.563 37.0272 36.563 39.178 36.563Z" fill="#B5D2C4"/>
<mask id="mask0" mask-type="alpha" maskUnits="userSpaceOnUse" x="27" y="34" width="19" height="32">
<path d="M39.178 36.563C40.8986 36.563 42.7626 35.4876 43.4796 34.95C45.0921 34.95 45.6309 36.563 45.0932 38.1761C44.5555 39.7892 45.0932 40.8646 44.5555 42.4777C44.1253 43.7681 43.6593 44.0907 43.4801 44.0907C43.1217 45.883 42.5123 49.8978 42.9424 51.6184C43.4801 53.7692 41.3293 53.7692 40.254 55.3823C39.1786 56.9954 38.1032 61.2969 37.5655 63.9854C37.0278 66.6738 35.4147 65.5985 34.3393 65.5985C33.2639 65.5985 33.8011 64.5231 32.7263 63.9854C31.6514 63.4477 32.1886 62.3723 30.5749 60.2215C29.284 58.5009 30.037 58.4292 30.5749 58.6084C30.2165 57.8915 29.2845 56.2426 28.4241 55.3823C27.5638 54.522 27.7072 52.8731 27.8865 52.1561C27.8865 51.6184 27.994 50.328 28.4241 49.4677C28.9618 48.3923 28.4241 47.8546 28.4241 46.2415C28.4241 44.6284 29.4995 45.1661 30.5749 43.553C31.6503 41.94 33.8011 40.8646 33.8011 38.7138C33.8011 36.563 37.0272 36.563 39.178 36.563Z" fill="#B5D2C4"/>
</mask>
<g mask="url(#mask0)">
<path d="M41.8664 40.327C42.2966 37.3159 46.3472 36.9216 48.3187 37.1008L46.168 45.1662L41.3288 56.9955C40.9703 56.8162 39.9307 56.3502 38.6403 55.9201C37.0273 55.3824 37.565 54.8447 37.565 54.307C37.565 53.7693 36.4895 53.7693 37.565 50.0054C38.6404 48.9301 37.5649 48.9301 36.4895 47.317C35.4141 45.7039 37.0272 45.7039 40.2533 45.1662C42.9418 45.7039 41.3287 44.0908 41.8664 40.327Z" fill="#97B6A7"/>
<path d="M36.1363 60.3912C38.3735 62.452 36.4028 66.0129 35.1378 67.5357L29.7114 61.1929L22.7076 50.502C23.0584 50.3083 24.0315 49.7158 25.1172 48.8964C26.4743 47.8721 26.6126 48.6198 27.0557 48.9245C27.4987 49.2292 28.1081 48.3432 30.5998 51.3623C30.8763 52.8578 31.4858 51.9716 33.4243 51.9998C35.3628 52.0279 34.4486 53.3569 33.0634 56.3197C31.0968 58.2301 33.34 57.8152 36.1363 60.3912Z" fill="#97B6A7"/>
<path d="M30.2495 46.6011C28.2967 48.9331 24.6467 47.1329 23.0659 45.9413L29.1451 40.2213L39.493 32.72C39.7032 33.0613 40.341 34.0053 41.2108 35.051C42.298 36.3582 41.5577 36.5318 41.2743 36.9887C40.9908 37.4456 41.9047 38.0125 39.0068 40.644C37.526 40.9909 38.4399 41.5579 38.5035 43.4955C38.567 45.4332 37.1962 44.5829 34.1713 43.3391C32.1701 41.465 32.6905 43.6861 30.2495 46.6011Z" fill="#97B6A7"/>
</g>
<path d="M9.0807 46.2662C6.84269 45.8881 3.61348 44.7038 2.27863 44.1589C1.97395 42.4524 3.86909 43.4694 5.76422 44.4864C7.65935 45.5034 11.1449 45.8309 12.7354 45.1414C14.3259 44.4519 17.3829 45.5781 19.4923 46.1958C21.6017 46.8134 23.4969 47.8304 24.6135 46.8867C25.7302 45.9429 27.1516 46.7057 28.5729 47.4685C29.9943 48.2312 29.3514 49.4292 27.93 48.6664C26.5087 47.9037 26.2944 48.303 24.9182 48.5932C23.542 48.8834 19.3232 47.648 16.74 46.7761C14.1568 45.9042 11.8782 46.7388 9.0807 46.2662Z" fill="#D3542C"/>
<path d="M47.7827 61.8319C51.9809 52.1223 61.7767 42.3742 66.1499 38.7139C68.7737 41.0257 72.8407 47.8455 68.1178 56.6303C63.3948 65.4152 52.5932 63.7584 47.7827 61.8319Z" fill="#B5D2C4"/>
<path d="M68.4279 48.1701C67.83 49.9654 61.0824 49.4954 57.7834 49.0359C59.9499 46.1776 64.6053 40.6449 65.8944 41.3811C67.5057 42.3013 69.1753 45.9258 68.4279 48.1701Z" fill="#97B6A7"/>
<path d="M50.7149 59.2132C49.7152 57.6064 54.3861 52.7143 56.8465 50.4691C57.6624 53.9617 58.9468 61.0774 57.557 61.5992C55.8199 62.2515 51.9645 61.2215 50.7149 59.2132Z" fill="#97B6A7"/>
<path d="M62.7573 58.8399C60.8814 59.0886 58.3489 52.8167 57.3171 49.6496C60.8356 50.3456 67.8483 52.1078 67.751 53.589C67.6295 55.4406 65.1022 58.5289 62.7573 58.8399Z" fill="#97B6A7"/>
</svg>
