<svg width="110" height="80" viewBox="0 0 110 80" fill="none" xmlns="http://www.w3.org/2000/svg">
<path d="M64.6141 43.247C64.6141 47.8202 56.5835 51.5276 46.6772 51.5276C36.7709 51.5276 28.7402 47.8202 28.7402 43.247V31.7816H64.6141V43.247Z" fill="#B5D2C4"/>
<ellipse cx="46.6772" cy="31.7817" rx="17.937" ry="8.28055" fill="#F4683C"/>
<path d="M45.2617 29.1483C49.5339 27.8483 51.9369 29.1483 52.6045 29.9609C54.607 31.5859 52.6045 32.3985 49.2668 32.3985C45.9292 32.3985 47.9318 35.6486 43.9267 34.8361C39.9216 34.0235 39.9216 30.7734 45.2617 29.1483Z" fill="#B5D2C4"/>
<path d="M57.0785 27.3515C56.4733 27.9094 55.3535 29.5831 55.7167 31.8147C56.1706 34.6042 59.3483 26.7936 57.0785 27.3515Z" fill="#D3542C"/>
<path d="M60.3109 32.0165C59.5386 32.1349 57.8159 32.9018 57.1039 35.0221C56.214 37.6725 62.5046 32.8825 60.3109 32.0165Z" fill="#D3542C"/>
<path d="M35.1943 31.0801C34.8541 30.2833 33.675 28.6631 31.6801 28.5567C29.1865 28.4237 35.1554 33.7187 35.1943 31.0801Z" fill="#D3542C"/>
<path d="M37.3904 31.198C38.067 30.7585 39.4099 29.3123 39.3687 27.0434C39.3172 24.2072 35.0711 31.332 37.3904 31.198Z" fill="#D3542C"/>
<path d="M39.6995 36.4373C39.5933 35.5599 38.9141 33.6042 37.0464 32.8006C34.7118 31.796 38.9429 38.9323 39.6995 36.4373Z" fill="#D3542C"/>
<path d="M35.8739 56.6606C35.8739 61.2338 27.8433 64.9411 17.937 64.9411C8.03065 64.9411 0 61.2338 0 56.6606V45.1952H35.8739V56.6606Z" fill="#B5D2C4"/>
<ellipse cx="17.937" cy="45.1951" rx="17.937" ry="8.28055" fill="#F4683C"/>
<path d="M16.5215 42.5618C20.7936 41.2617 23.1967 42.5618 23.8642 43.3743C25.8668 44.9994 23.8642 45.8119 20.5266 45.8119C17.189 45.8119 19.1916 49.062 15.1864 48.2495C11.1813 47.437 11.1813 44.1868 16.5215 42.5618Z" fill="#B5D2C4"/>
<path d="M28.3383 40.765C27.733 41.3229 26.6133 42.9966 26.9764 45.2281C27.4304 48.0176 30.6081 40.2071 28.3383 40.765Z" fill="#D3542C"/>
<path d="M31.5707 45.4299C30.7983 45.5484 29.0756 46.3153 28.3637 48.4356C27.4737 51.086 33.7644 46.296 31.5707 45.4299Z" fill="#D3542C"/>
<path d="M6.45384 44.4935C6.11364 43.6967 4.93451 42.0765 2.93961 41.9702C0.44599 41.8372 6.41496 47.1321 6.45384 44.4935Z" fill="#D3542C"/>
<path d="M8.65015 44.6116C9.32677 44.1721 10.6697 42.7259 10.6285 40.457C10.5769 37.6208 6.33086 44.7456 8.65015 44.6116Z" fill="#D3542C"/>
<path d="M10.9592 49.8507C10.8531 48.9734 10.1738 47.0177 8.30617 46.214C5.97158 45.2094 10.2027 52.3457 10.9592 49.8507Z" fill="#D3542C"/>
<path d="M93.7142 1.17627L42.612 64.8538C42.3194 65.2184 42.4293 65.7591 42.841 65.9805C43.1507 66.1471 43.5346 66.0754 43.7633 65.8083L94.8292 6.17082C94.9238 6.06033 94.9667 5.91469 94.947 5.77055L94.3453 1.35125C94.303 1.04108 93.9101 0.93213 93.7142 1.17627Z" fill="#97B6A7"/>
<path d="M52.3167 45.4751L63.9931 46.127C64.1395 46.1352 64.2848 46.1565 64.4274 46.1908C65.7398 46.5059 66.5483 47.8252 66.2332 49.1377L65.9146 50.4648C65.7635 51.0942 65.7752 51.7517 65.9488 52.3753L67.1552 56.7096C67.4146 58.4871 66.7822 60.2784 65.4644 61.4991L64.7506 62.1603L63.1679 63.7728C62.7736 64.1746 62.3315 64.5264 61.8516 64.8206C61.0566 65.3077 60.3688 65.9513 59.83 66.7122L58.9884 67.9008L57.8617 69.0987C56.7384 70.293 55.0612 70.7939 53.467 70.4111C52.7773 70.2455 52.0554 70.2329 51.378 70.4432C50.2112 70.8054 48.8369 71.3811 48.6875 72.0036C48.4813 72.862 47.6183 73.3909 46.7599 73.1848L44.5417 72.6522C43.956 72.5116 43.3456 72.5093 42.7589 72.6454L42.0514 72.8096C40.1159 73.2588 38.0807 72.8588 36.4591 71.7105L35.3904 70.9538C34.6831 70.453 34.0585 69.8459 33.4238 69.2558C32.7461 68.6259 31.8675 67.9653 31.0711 67.7741C30.5313 67.6445 29.8416 66.8622 29.6863 66.3292L29.1648 64.5394C28.9634 63.8482 29.1959 63.1079 29.722 62.6165C30.6107 61.7863 31.6024 60.719 32.0307 59.8495C32.3781 59.1444 31.8771 58.3344 32.1367 57.5926C32.2054 57.3963 32.2956 57.1846 32.4016 56.9639C33.4634 54.7524 35.6998 53.4145 38.0551 52.7283L38.5543 52.5828L41.8253 51.2588C42.4733 50.9965 43.0772 50.636 43.6156 50.1901C44.4308 49.5151 45.4353 49.1047 46.3339 48.5456C46.8923 48.1981 47.3961 47.7102 47.5496 47.0706C47.8482 45.8271 50.852 45.4888 52.3167 45.4751Z" fill="#B5D2C4"/>
<path d="M40.0445 67.0818C34.0735 67.4633 29.3944 66.1138 27.8012 65.3914C27.2844 63.256 31.1421 46.2332 50.3363 44.7785C69.5304 43.3238 75.8366 55.0942 74.7749 54.5534C73.7132 54.0125 69.4665 51.8492 58.7938 53.9007C48.121 55.9521 47.5083 66.6049 40.0445 67.0818Z" fill="#F4683C"/>
<mask id="mask0" mask-type="alpha" maskUnits="userSpaceOnUse" x="27" y="44" width="48" height="24">
<path d="M40.0445 67.0818C34.0735 67.4633 29.3944 66.1138 27.8012 65.3914C27.2844 63.256 31.1421 46.2332 50.3363 44.7785C69.5304 43.3238 75.8366 55.0942 74.7749 54.5534C73.7132 54.0125 69.4665 51.8492 58.7938 53.9007C48.121 55.9521 47.5083 66.6049 40.0445 67.0818Z" fill="#F4683C"/>
</mask>
<g mask="url(#mask0)">
<path d="M32.1919 48.3727C34.1337 49.9858 37.0301 56.9349 33.0818 71.8256" stroke="#D3542C"/>
<path d="M39.6716 45.7643C41.6134 47.3774 44.5098 54.3265 40.5615 69.2172" stroke="#D3542C"/>
<path d="M47.9995 42.6295C49.8034 44.3955 52.1241 51.5574 46.9757 66.0769" stroke="#D3542C"/>
<path d="M58.5669 41.6431C59.925 43.771 60.5673 51.272 52.2711 64.2526" stroke="#D3542C"/>
<path d="M68.8267 43.2532C69.8443 45.5634 69.3348 53.0746 59.1557 64.6378" stroke="#D3542C"/>
</g>
<path d="M108.432 14.8057L47.485 68.7241C47.1349 69.0339 47.1516 69.5853 47.5198 69.8733C47.7968 70.0899 48.1873 70.0843 48.458 69.8598L108.831 19.7846C108.98 19.6609 109.069 19.4794 109.076 19.2858L109.22 15.177C109.234 14.7612 108.744 14.5301 108.432 14.8057Z" fill="#97B6A7"/>
</svg>
