<svg width="141" height="96" viewBox="0 0 141 96" fill="none" xmlns="http://www.w3.org/2000/svg">
<path d="M53.5184 5.99215C63.8837 4.21386 74.21 5.76425 76.6952 9.76312C86.677 25.8237 71.661 40.7045 56.2065 41.0773C40.7521 41.4501 31.9048 27.0177 33.2778 18.5792C34.6508 10.1406 40.5618 8.21502 53.5184 5.99215Z" fill="#D3542C"/>
<path d="M54.982 8.29623C64.6135 7.0354 70.4742 9.63859 72.2006 11.0978C77.3799 15.4753 64.7801 20.4952 59.8149 22.0439C53.6085 23.9798 36.2964 21.7522 37.0435 17.1606C37.7906 12.569 42.9425 9.87226 54.982 8.29623Z" fill="#F4683C"/>
<path d="M17.9565 24.0765C27.9017 20.6567 38.3429 20.5286 41.4381 24.0765C53.8695 38.3256 41.4381 55.4247 26.2441 58.2745C11.0502 61.1243 0 48.3001 0 39.7506C0 31.2011 5.52508 28.3512 17.9565 24.0765Z" fill="#B5D2C4"/>
<path d="M86.4193 23.3225C76.0099 21.8242 65.7291 23.6524 63.3526 27.7168C53.8073 44.0406 69.2191 58.5112 84.6779 58.4673C100.137 58.4233 108.592 43.7577 106.992 35.3593C105.392 26.9608 99.4311 25.1953 86.4193 23.3225Z" fill="#B5D2C4"/>
<path d="M19.7711 26.1154C29.0752 23.3242 35.2779 24.9524 37.2162 26.1154C43.0312 29.6044 31.4012 36.5825 26.7491 38.9085C20.9341 41.816 3.48901 42.3975 3.48901 37.7455C3.48901 33.0935 8.14104 29.6044 19.7711 26.1154Z" fill="#97B6A7"/>
<path d="M85.0186 25.6647C75.3566 24.664 69.5681 27.4242 67.8817 28.9294C62.8223 33.445 75.5528 38.1234 80.5579 39.5377C86.8143 41.3056 104.06 38.6122 103.189 34.0423C102.319 29.4725 97.0961 26.9157 85.0186 25.6647Z" fill="#97B6A7"/>
<mask id="mask0" mask-type="alpha" maskUnits="userSpaceOnUse" x="66" y="21" width="38" height="24">
<path d="M85.0186 25.6652C75.3566 24.6645 69.5681 27.4247 67.8817 28.9299C62.8223 33.4455 75.5528 38.1238 80.5579 39.5382C86.8143 41.3061 104.06 38.6127 103.189 34.0428C102.319 29.473 97.0961 26.9162 85.0186 25.6652Z" fill="#97B6A7"/>
</mask>
<g mask="url(#mask0)">
<path d="M85.0186 28.3502C75.3566 27.3494 69.5681 30.1096 67.8817 31.6148C62.8223 36.1304 75.5528 40.8088 80.5579 42.2231C86.8143 43.9911 104.06 41.2976 103.189 36.7278C102.319 32.1579 97.0961 29.6011 85.0186 28.3502Z" fill="#F4683C"/>
</g>
<path d="M35.0442 31.3844C32.4181 33.4719 27.5963 34.283 25.5137 34.4276C21.0851 33.0033 17.237 28.5078 15.8665 26.4381L18.4369 26.0431L17.6858 24.5799L19.1491 23.8288L19.5052 22.7217L23.5777 25.2532L23.1438 19.0053L26.1092 21.1807L27.9285 19.3224L28.3235 21.8928L31.25 20.3907L29.1134 27.0336L31.6838 26.6386L32.0788 29.209L33.5421 28.458C33.6737 29.3148 34.1585 31.0996 35.0442 31.3844Z" fill="#F4683C"/>
<path d="M8.02232 40.0936C10.5711 40.2141 13.9075 38.5707 15.257 37.7339C17.3567 34.8857 17.7327 30.4004 17.6581 28.5138L15.8962 29.4129L15.7091 28.176L14.4722 28.3631L13.7601 27.8382L12.3724 31.2113L9.86209 27.1625L8.99935 29.8236L7.05033 29.4858L7.94949 31.2477L5.47555 31.6219L9.74781 34.7715L7.98591 35.6706L8.88506 37.4325L7.64809 37.6196C7.94781 38.2069 8.44227 39.5239 8.02232 40.0936Z" fill="#F4683C"/>
<mask id="mask1" mask-type="alpha" maskUnits="userSpaceOnUse" x="36" y="4" width="39" height="23">
<path d="M54.982 8.29586C64.6135 7.03504 70.4742 9.63822 72.2006 11.0974C77.3799 15.475 64.7801 20.4948 59.8149 22.0435C53.6085 23.9795 36.2964 21.7519 37.0435 17.1602C37.7906 12.5686 42.9425 9.8719 54.982 8.29586Z" fill="#F4683C"/>
</mask>
<g mask="url(#mask1)">
<path d="M69.7808 12.1587L70.9438 15.6477C70.9438 16.4231 70.9437 18.2065 70.9434 19.1369C70.9431 20.0673 59.3135 24.1766 53.4987 26.1149L36.0532 19.1369C36.4409 18.3616 37.2162 16.5783 37.2162 15.6479C37.2162 14.4849 39.5427 15.6477 38.3797 14.4849C37.2167 13.3221 40.7057 13.3217 43.0317 13.3217C45.3577 13.3217 43.0317 15.6479 44.1947 16.8109C45.3577 17.9739 48.8469 15.6477 47.6839 14.4849C46.7535 13.5546 48.8469 12.5466 50.0099 12.1589L53.4987 13.3217C52.7233 12.5463 51.4053 10.9957 52.3357 10.9957C53.2661 10.9957 55.8247 11.771 56.9877 12.1587C57.3754 12.1587 58.3833 11.9261 59.3137 10.9957C60.2441 10.0653 62.8027 10.608 63.9657 10.9957C65.1287 12.1587 67.4547 14.2521 67.4547 13.3217C67.4547 12.3913 69.0054 12.1587 69.7808 12.1587Z" fill="#B5D2C4"/>
</g>
<path d="M48.8661 36.2306C59.2313 34.4523 69.5577 36.0027 72.0429 40.0015C82.0247 56.0621 67.0086 70.9429 51.5542 71.3157C36.0997 71.6885 27.2525 57.2561 28.6255 48.8176C29.9985 40.379 35.9095 38.4534 48.8661 36.2306Z" fill="#F4683C"/>
<path d="M50.3299 38.5343C59.9614 37.2734 65.8221 39.8766 67.5485 41.3358C72.7278 45.7134 60.128 50.7332 55.1628 52.282C48.9564 54.2179 31.6443 51.9903 32.3914 47.3986C33.1385 42.807 38.2904 40.1103 50.3299 38.5343Z" fill="#D3542C"/>
<mask id="mask2" mask-type="alpha" maskUnits="userSpaceOnUse" x="31" y="34" width="39" height="23">
<path d="M50.3296 38.5346C59.9612 37.2738 65.8219 39.877 67.5483 41.3362C72.7275 45.7137 60.1278 50.7336 55.1626 52.2823C48.9561 54.2182 31.6441 51.9907 32.3911 47.399C33.1382 42.8074 38.2902 40.1107 50.3296 38.5346Z" fill="#F4683C"/>
</mask>
<g mask="url(#mask2)">
<path d="M65.1284 42.3974L66.2914 45.8865C66.2914 46.6619 66.2913 48.4453 66.2911 49.3757C66.2908 50.3061 54.6611 54.4154 48.8463 56.3537L31.4009 49.3757C31.7885 48.6003 32.5639 46.8171 32.5639 45.8867C32.5639 44.7236 34.8903 45.8865 33.7273 44.7236C32.5643 43.5608 36.0534 43.5604 38.3794 43.5604C40.7054 43.5604 38.3794 45.8867 39.5424 47.0497C40.7054 48.2127 44.1946 45.8865 43.0316 44.7236C42.1012 43.7934 44.1946 42.7854 45.3576 42.3976L48.8463 43.5604C48.071 42.7851 46.7529 41.2344 47.6833 41.2344C48.6137 41.2344 51.1723 42.0098 52.3353 42.3974C52.723 42.3974 53.7309 42.1648 54.6614 41.2344C55.5918 40.304 58.1504 40.8468 59.3134 41.2344C60.4764 42.3974 62.8024 44.4908 62.8024 43.5604C62.8024 42.63 64.3531 42.3974 65.1284 42.3974Z" fill="#B5D2C4"/>
</g>
<path d="M50.3296 38.5346C59.9612 37.2738 65.8219 39.877 67.5483 41.3362C72.7275 45.7137 60.1278 50.7336 55.1626 52.2823C48.9561 54.2182 31.6441 51.9907 32.3911 47.399C33.1382 42.8074 38.2902 40.1107 50.3296 38.5346Z" fill="#D3542C"/>
<path d="M50.6152 41.4545C49.6848 38.6633 53.7499 36.1763 56.4305 35.6402C62.2456 34.4772 64.572 37.9662 58.756 44.9436C46.546 59.5918 34.3298 43.7812 37.8219 44.9436C43.637 47.2696 51.7782 44.9436 50.6152 41.4545Z" fill="#B5D2C4"/>
<path d="M60.4766 30.7677L59.3136 36.5827L58.1506 30.7677H60.4766Z" fill="#97B6A7"/>
<path d="M95.3664 34.2564C91.8774 32.7057 83.5037 29.837 77.9213 30.7674C70.9432 31.9304 70.9432 34.2564 77.9213 36.5824C84.8993 38.9085 93.0404 38.9085 91.8774 36.5824C90.9469 34.7216 83.7363 34.2564 80.2473 34.2564" stroke="#D3542C" stroke-width="1.55882"/>
<path d="M89.6432 34.726C104.983 23.9146 121.655 28.7576 129.429 33.2179C130.106 33.6061 130.034 34.5749 129.332 34.9156C106.591 45.9505 89.198 64.8398 82.2658 74.3287C81.8075 74.9561 80.8485 74.8603 80.5647 74.137C76.8176 64.5892 74.1537 45.643 89.6432 34.726Z" fill="#D3542C"/>
<path d="M100.763 41.0715C118.462 34.8313 133.193 44.0191 139.464 50.4227C140.01 50.9802 139.677 51.8929 138.909 52.0302C114.027 56.4761 92.1582 69.9331 82.91 77.1834C82.2985 77.6627 81.4016 77.3101 81.3248 76.537C80.311 66.3305 82.8915 47.3727 100.763 41.0715Z" fill="#F4683C"/>
</svg>
