<svg width="101" height="56" viewBox="0 0 101 56" fill="none" xmlns="http://www.w3.org/2000/svg">
<path d="M84.2487 41.4641C103.849 25.4641 103.749 17.3424 95.2487 12.4641C37.7487 -20.5359 -8.25131 23.4641 1.24869 41.4641C10.7487 59.4641 59.7487 61.4641 84.2487 41.4641Z" fill="#D3542C"/>
<path d="M81.8116 40.3532C99.9141 25.5691 99.8217 18.0646 91.9712 13.5571C38.8645 -16.935 -3.62087 23.7211 5.15328 40.3532C13.9274 56.9852 59.1836 58.8332 81.8116 40.3532Z" fill="#F4683C"/>
<path d="M88.5 12.0293C90.9 11.6293 91.1667 13.5293 91 14.5293H92.5L94.5 18.0293H95.5L94.5 21.5293L95.5 22.5293L94.5 25.5293V27.5293L91 29.5293L88.5 31.0293V33.5293L84.5 35.0293V37.0293L82.5 38.0293L79 40.0293L77.5 41.0293L75.5 43.0293L73 44.0293H70L68.2295 45.0293L67.5 46.5293C67 47.0293 65.5 48.0293 63.5 48.0293C61 48.0293 62 48.0293 61 49.8146C60 51.5999 59.5 49.8146 58 49.8146H54H49C47.6089 49.8146 48.1328 50.9308 48.7315 51.7074C48.8515 51.8306 48.9406 51.9402 49 52.0293C48.913 51.933 48.8214 51.824 48.7315 51.7074C48.1789 51.1399 46.9721 50.2844 45 49.8146C42.6 49.2429 44 50.0529 45 50.5293L42.0521 51.7927C41.977 51.9381 41.8044 52.0293 41.5 52.0293L42.0521 51.7927C42.347 51.2216 41.1376 49.8146 40.5 49.8146C39.7 49.8146 40.1667 50.2911 40.5 50.5293L34 52.0293C33.1667 51.5293 31.5 50.3864 31.5 49.8146C31.5 49.2429 29.5 50.0529 28.5 50.5293H27.5H24C22.5 50.3627 18.9 49.6293 16.5 48.0293C15 48.0293 13.5 47.5293 13.5 46.5293C13.5 45.7293 12.1667 45.196 11.5 45.0293C10.8333 44.3627 9.19999 42.8293 7.99999 42.0293C7.99999 41.0293 7.69999 38.8293 6.5 38.0293C5.30001 37.2293 4.66667 37.0293 4.5 37.0293V35.0293V33.5293C5 33.196 6.1 32.2293 6.5 31.0293C7 29.5293 7.99999 28.5293 7.99999 27.5293C7.99999 26.5293 6.99999 25.5293 7.99999 25.5293C9.49999 25.5293 8.99999 23.5293 9.49999 22.5293C9.89999 21.7293 11 21.5293 11.5 21.5293C11.8333 20.8627 12.7 19.2293 13.5 18.0293C14.3 16.8293 14.8333 17.5293 15 18.0293L16.5 17.0293V14.5293C17.8333 14.196 20.3 13.4293 19.5 13.0293C18.7 12.6293 19.1667 12.196 19.5 12.0293L26 9.52932L30 7.52932L31.5 6.02932H36L39.5 4.02932L43 3.02932H46.5H48C49.5 3.02932 52.8 2.82932 54 2.02932C55.2 1.22932 57.1667 3.02932 58 4.02932L61 3.02932H63.5L66 6.02932H67.5H72H73L75.5 7.52932H79H80.5L82.5 9.52932V12.0293C83.5 12.196 86.1 12.4293 88.5 12.0293Z" fill="#B5D2C4"/>
<path d="M28.8046 13.7086C44.0838 7.21869 53.3785 8.77882 56.5806 12.6074L58.8019 12.3214L59.4919 17.6818C60.8786 24.0352 49.6043 24.6852 47.1325 32.553C44.1243 42.1283 28.2331 47.7076 16.4275 41.0991C12.7848 39.06 10.75 36.4439 10.2389 33.5626C10.2053 33.3733 10.1783 33.1829 10.1578 32.9914L9.35258 27.3157L16.9507 17.7081L22.1408 17.0401C24.1265 15.8693 26.3498 14.7513 28.8046 13.7086Z" fill="#F4683C"/>
<path d="M28.1524 8.6401C43.4317 2.15015 52.7263 3.71027 55.9284 7.53881C65.5347 19.0244 49.4886 17.9092 46.4804 27.4845C43.4721 37.0598 27.5809 42.639 15.7753 36.0305C3.96968 29.4221 9.05339 16.7525 28.1524 8.6401Z" fill="#D3542C"/>
<path d="M28.9366 10.4005C41.3568 5.18095 48.904 6.4161 51.499 9.47677C59.2843 18.6588 46.2527 17.7901 43.7948 25.4615C41.337 33.133 28.4211 37.6243 18.8421 32.3508C9.26303 27.0772 13.4114 16.925 28.9366 10.4005Z" fill="#F4683C"/>
<path d="M29.4075 24.4116C27.361 23.2087 22.6936 21.5004 20.3957 24.2902C17.5232 27.7775 33.4846 30.3042 29.4075 24.4116Z" fill="#D3542C"/>
<path d="M50.7257 31.8315C49.5179 31.5967 47.1065 31.7916 47.1229 34.4494C47.1435 37.7716 54.9667 34.868 50.7257 31.8315Z" fill="#97B6A7"/>
<path d="M46.8691 34.793C45.8746 34.0684 43.6079 33.223 42.4964 35.6372C41.107 38.6551 49.4235 39.3406 46.8691 34.793Z" fill="#97B6A7"/>
<path d="M56.3837 33.1743C55.3893 32.4498 53.1225 31.6043 52.011 34.0186C50.6216 37.0364 58.9381 37.722 56.3837 33.1743Z" fill="#97B6A7"/>
<path d="M69.9746 33.7131C68.9801 32.9886 66.7133 32.1431 65.6018 34.5574C64.2125 37.5752 72.5289 38.2608 69.9746 33.7131Z" fill="#97B6A7"/>
<path d="M61.6515 30.3549C60.4386 30.5614 58.251 31.5946 59.2041 34.0757C60.3956 37.177 66.6911 31.6997 61.6515 30.3549Z" fill="#97B6A7"/>
<path d="M57.4909 34.4384C56.2779 34.6449 54.0903 35.6781 55.0435 38.1592C56.235 41.2605 62.5305 35.7832 57.4909 34.4384Z" fill="#97B6A7"/>
<path d="M53.5414 34.6643C52.494 34.0188 50.1686 33.351 49.247 35.8439C48.095 38.9601 56.4396 39.001 53.5414 34.6643Z" fill="#97B6A7"/>
<path d="M48.9633 36.9105C47.9158 36.265 45.5905 35.5972 44.6689 38.0902C43.5169 41.2063 51.8614 41.2472 48.9633 36.9105Z" fill="#97B6A7"/>
<path d="M42.766 44.7585C41.7186 44.113 39.3932 43.4452 38.4716 45.9382C37.3196 49.0543 45.6642 49.0952 42.766 44.7585Z" fill="#97B6A7"/>
<path d="M37.2259 37.5775C36.0697 37.9985 34.1033 39.4079 35.4866 41.6774C37.2157 44.5142 42.425 37.9953 37.2259 37.5775Z" fill="#97B6A7"/>
<path d="M44.5782 38.9334C43.3896 38.6153 40.9704 38.6422 40.8022 41.2947C40.5919 44.6103 48.5979 42.2573 44.5782 38.9334Z" fill="#97B6A7"/>
<path d="M41.6211 35.5787C40.4326 35.2606 38.0134 35.2875 37.8452 37.94C37.6348 41.2556 45.6409 38.9026 41.6211 35.5787Z" fill="#97B6A7"/>
<path d="M51.9302 42.53C50.7208 42.7567 48.5508 43.8263 49.5453 46.2911C50.7883 49.372 56.9915 43.7905 51.9302 42.53Z" fill="#97B6A7"/>
<path d="M49.9975 37.4673C48.7882 37.6941 46.6182 38.7637 47.6126 41.2284C48.8557 44.3094 55.0589 38.7278 49.9975 37.4673Z" fill="#97B6A7"/>
<path d="M57.2764 37.6088C56.067 37.8355 53.897 38.9051 54.8914 41.3699C56.1345 44.4509 62.3377 38.8693 57.2764 37.6088Z" fill="#97B6A7"/>
<path d="M61.3418 33.4288C60.1325 33.6555 57.9624 34.7251 58.9569 37.1899C60.1999 40.2708 66.4031 34.6893 61.3418 33.4288Z" fill="#97B6A7"/>
<path d="M63.5884 38.0062C62.379 38.2329 60.209 39.3025 61.2035 41.7673C62.4465 44.8482 68.6497 39.2667 63.5884 38.0062Z" fill="#97B6A7"/>
<path d="M68.5058 25.3248C67.2965 25.5515 65.1265 26.6211 66.1209 29.0859C67.364 32.1668 73.5672 26.5853 68.5058 25.3248Z" fill="#97B6A7"/>
<path d="M68.5 24.7324C61.5 23.7324 56 21.2324 56 14.7324C56 13.2002 56.492 12.1802 57.2586 11.5293C57.839 11.0293 59.4 9.92925 61 9.52925C61.5068 9.40256 62.6877 10.0463 64.136 11.1108C64.2618 11.1505 64.3833 11.1912 64.5 11.2324C68.5985 12.4379 71.302 15.852 72.2182 18.9525C73.4497 20.5902 74.0758 21.9535 73.5 22.5293C72.21 23.8193 71.5468 24.3606 70.5793 24.5832C70.0135 24.788 69.3223 24.8499 68.5 24.7324Z" fill="#D3542C"/>
<path d="M58 13.5293C58 8.32935 63.6667 9.02935 66.5 10.0293C75 12.5293 77.5 24.5294 70.5 23.5294C63.5 22.5294 58 20.0293 58 13.5293Z" fill="#F4683C"/>
<path d="M73.9361 26.9875C67.5634 23.9235 63.0731 19.8815 65.0329 13.684C65.4949 12.2231 66.2715 11.3989 67.1987 11.0094C67.9029 10.7077 69.7229 10.1295 71.369 10.2305C71.8904 10.2625 72.8222 11.2324 73.8823 12.6839C73.9901 12.7598 74.0937 12.8352 74.1926 12.9097C77.7369 15.2947 79.2853 19.3651 79.224 22.5976C79.9044 24.5303 80.0904 26.019 79.3677 26.3944C77.7488 27.2354 76.9532 27.5516 75.9637 27.4721C75.3624 27.4968 74.6847 27.3474 73.9361 26.9875Z" fill="#D3542C"/>
<path d="M67.3025 13.1399C68.8704 8.18189 74.0623 10.5578 76.4623 12.3656C83.813 17.312 82.5785 29.5074 76.2058 26.4434C69.8331 23.3794 65.3428 19.3374 67.3025 13.1399Z" fill="#F4683C"/>
<path d="M78.9226 28.926C73.4731 24.4201 70.0859 19.4174 73.4778 13.8726C74.2773 12.5655 75.2293 11.9522 76.2229 11.7969C76.979 11.6733 78.8846 11.5495 80.4582 12.0432C80.9566 12.1995 81.628 13.3649 82.3081 15.0287C82.3946 15.1283 82.477 15.2264 82.5551 15.3225C85.4223 18.4894 85.947 22.8126 85.1106 25.9356C85.3065 27.9753 85.1292 29.465 84.3376 29.6557C82.564 30.083 81.7157 30.1987 80.7743 29.8836C80.1847 29.7631 79.5628 29.4553 78.9226 28.926Z" fill="#D3542C"/>
<path d="M75.8116 13.89C78.5251 9.4541 82.9937 13.0083 84.8889 15.3398C90.8353 21.908 86.706 33.4492 81.2564 28.9433C75.8069 24.4375 72.4197 19.4348 75.8116 13.89Z" fill="#F4683C"/>
</svg>
