<svg width="107" height="92" viewBox="0 0 107 92" fill="none" xmlns="http://www.w3.org/2000/svg">
<path d="M31.232 69.5665C72.7313 52.5929 68.6999 28.1292 62.542 12.6868C59.5862 5.27438 48.4901 7.64885 51.3802 20.1466C57.5788 38.485 45.4998 49.9063 31.5283 54.2217C17.5568 58.5371 19.7389 71.6675 31.232 69.5665Z" fill="#D3542C"/>
<path d="M56.4281 10.0494C55.1576 9.61606 52.5893 8.35955 52.4803 6.80059C52.3441 4.85188 54.429 6.66436 54.6512 7.04048C54.8733 7.4166 54.2247 3.74129 55.8654 4.80154C56.403 5.14897 56.6493 5.4642 56.7268 5.73059C57.2064 4.8197 57.9495 4.0355 58.6345 5.19545C59.5229 6.69993 57.5337 9.0583 56.4281 10.0494Z" fill="#D3542C"/>
<path d="M23.1917 63.1694C22.2486 64.1248 19.9997 65.8903 18.5486 65.31C16.7348 64.5847 19.274 63.4962 19.7093 63.4599C20.1446 63.4236 16.5533 62.4082 18.2219 61.3924C18.7686 61.0595 19.1596 60.9749 19.4332 61.021C18.8217 60.1929 18.4391 59.1826 19.7815 59.0706C21.5227 58.9254 22.7804 61.7427 23.1917 63.1694Z" fill="#D3542C"/>
<path d="M53.376 17.2495C55.5695 17.8142 60.6502 20.4616 63.4245 26.534" stroke="#F4683C" stroke-width="2"/>
<path d="M54.9585 27.9827C56.8971 29.1541 61.0021 33.1505 61.9136 39.7641" stroke="#F4683C" stroke-width="2"/>
<path d="M52.6504 38.4771C54.2139 40.1159 57.1272 45.0489 56.2724 51.6701" stroke="#F4683C" stroke-width="2"/>
<path d="M47.5347 46.5708C48.3573 48.6812 49.1755 54.3515 45.8665 60.1499" stroke="#F4683C" stroke-width="2"/>
<path d="M37.6436 54.2915C37.7452 56.5543 36.6997 62.1871 31.7044 66.6164" stroke="#F4683C" stroke-width="2"/>
<path d="M29.4607 63.5835C73.8252 70.0705 82.7936 46.9557 85.3437 30.5275C86.5678 22.642 75.8059 19.0442 71.9394 31.2752C67.9518 50.2177 51.7433 53.91 37.5186 50.5213C23.2939 47.1327 18.4959 59.5484 29.4607 63.5835Z" fill="#F4683C"/>
<path d="M81.4204 25.1477C80.5468 24.1284 78.9743 21.7406 79.6732 20.3428C80.5468 18.5955 81.4204 21.2164 81.4204 21.6532C81.4204 22.09 82.7308 18.5955 83.6045 20.3428C83.8907 20.9153 83.9425 21.312 83.8738 21.5808C84.7499 21.0403 85.7885 20.7429 85.7885 22.09C85.7885 23.8372 82.8764 24.8565 81.4204 25.1477Z" fill="#F4683C"/>
<path d="M25.7903 53.9867C24.4924 54.3297 21.6582 54.7064 20.7039 53.4689C19.5109 51.922 22.2507 52.2759 22.644 52.466C23.0373 52.6561 20.4613 49.9556 22.4146 49.9293C23.0547 49.9207 23.4343 50.0468 23.6464 50.2256C23.541 49.2016 23.7253 48.1371 24.9381 48.7233C26.5113 49.4836 26.1617 52.549 25.7903 53.9867Z" fill="#F4683C"/>
<path d="M75.1309 29.7952C76.7325 31.3968 79.761 36.2599 79.0621 42.8994" stroke="#D3542C" stroke-width="2"/>
<path d="M71.0356 39.8418C72.1092 41.8363 73.6118 47.3648 71.0336 53.523" stroke="#D3542C" stroke-width="2"/>
<path d="M63.7119 47.7046C64.2249 49.9108 64.225 55.6398 60.122 60.9064" stroke="#D3542C" stroke-width="2"/>
<path d="M55.1919 52.0725C54.8272 54.308 52.6482 59.6065 46.8505 62.9167" stroke="#D3542C" stroke-width="2"/>
<path d="M42.749 53.6909C41.6859 55.691 37.9214 60.0096 31.3679 61.2834" stroke="#D3542C" stroke-width="2"/>
<path d="M95.0752 66.6199L101.021 71.6956C102.607 73.0491 102.304 74.6973 101.954 75.3522C102.103 76.9191 96.7983 77.8905 95.0752 77.5552C93.9748 77.6122 92.4935 75.9816 90.305 78.0398C88.8718 79.3876 82.5191 78.2502 84.0143 77.5552C82.53 76.9953 81.4463 77.4066 80.1509 76.918C78.5318 76.3072 78.1284 77.2234 77.3188 76.918C76.5092 76.6126 73.4868 79.7215 69.0341 78.0419C68.2246 77.7365 66.6354 79.4976 64.6115 78.7341C62.5875 77.9706 61.1543 79.3184 58.5396 76.4436C55.9249 73.5688 59.3192 74.3771 55.676 73.0028C54.0569 72.3921 54.9923 69.9122 55.4601 68.6723L55.4601 68.6723C55.9278 67.4324 58.0147 66.8033 59.262 63.4968C58.2161 62.3469 59.7616 60.5379 60.6651 59.7771C61.4337 58.9654 63.1142 57.2072 63.6875 56.6681C64.2608 56.129 65.0058 56.8507 65.3067 57.2789C65.9193 56.8805 67.1075 55.6921 66.9587 54.1252C66.81 52.5583 70.3849 53.2144 72.191 53.7383L73.8101 54.3491C76.1249 54.7502 80.9602 55.2523 81.783 54.0518C82.8114 52.5513 86.0797 56.1448 87.8548 56.3423C89.6299 56.5398 89.7229 57.5191 92.0558 63.5924C92.2045 65.1593 94.1307 66.2636 95.0752 66.6199Z" fill="#B5D2C4"/>
<path d="M54.0476 79.1223C55.0412 79.6345 57.1938 80.0782 57.8558 77.7563C58.6834 74.8538 51.122 75.3949 54.0476 79.1223Z" fill="#97B6A7"/>
<path d="M58.165 77.5212C58.8479 78.4062 60.6095 79.7204 62.1933 77.8979C64.173 75.6197 57.0948 72.9052 58.165 77.5212Z" fill="#97B6A7"/>
<path d="M49.4541 76.511C50.1369 77.3959 51.8986 78.7102 53.4823 76.8876C55.462 74.6095 48.3839 71.8949 49.4541 76.511Z" fill="#97B6A7"/>
<path d="M37.7378 72.5815C38.4206 73.4665 40.1822 74.7807 41.766 72.9582C43.7457 70.68 36.6676 67.9655 37.7378 72.5815Z" fill="#97B6A7"/>
<path d="M44.142 77.6289C45.2524 77.7576 47.4231 77.4133 47.2233 75.007C46.9736 71.9992 40.0894 75.1735 44.142 77.6289Z" fill="#97B6A7"/>
<path d="M48.8105 75.126C49.9208 75.2546 52.0916 74.9104 51.8918 72.5041C51.642 69.4963 44.7578 72.6706 48.8105 75.126Z" fill="#97B6A7"/>
<path d="M52.3126 75.9349C53.0618 76.7644 54.9197 77.9386 56.3579 75.9991C58.1557 73.5748 50.889 71.4154 52.3126 75.9349Z" fill="#97B6A7"/>
<path d="M56.8771 75.141C57.6263 75.9705 59.4842 77.1447 60.9224 75.2052C62.7201 72.7809 55.4534 70.6214 56.8771 75.141Z" fill="#97B6A7"/>
<path d="M64.2804 69.8736C65.0296 70.7032 66.8875 71.8773 68.3257 69.9379C70.1234 67.5135 62.8567 65.3541 64.2804 69.8736Z" fill="#97B6A7"/>
<path d="M67.2844 77.5473C68.3997 77.4744 70.4733 76.7459 69.8446 74.4146C69.0587 71.5006 62.8566 75.8597 67.2844 77.5473Z" fill="#97B6A7"/>
<path d="M61.2176 74.4936C62.1732 75.0735 64.2897 75.6658 65.1115 73.3954C66.1388 70.5575 58.5581 70.5719 61.2176 74.4936Z" fill="#97B6A7"/>
<path d="M62.9427 78.1718C63.8983 78.7517 66.0148 79.344 66.8366 77.0736C67.8639 74.2357 60.2832 74.2501 62.9427 78.1718Z" fill="#97B6A7"/>
<path d="M55.7203 69.4844C56.8326 69.5945 58.9973 69.214 58.7573 66.8114C58.4574 63.8082 51.6272 67.097 55.7203 69.4844Z" fill="#97B6A7"/>
<path d="M56.1168 74.3918C57.2291 74.5019 59.3938 74.1214 59.1538 71.7189C58.8539 68.7156 52.0237 72.0044 56.1168 74.3918Z" fill="#97B6A7"/>
<path d="M49.8043 72.4155C50.9166 72.5256 53.0813 72.1451 52.8413 69.7425C52.5414 66.7393 45.7112 70.0281 49.8043 72.4155Z" fill="#97B6A7"/>
<path d="M45.1949 75.0269C46.3072 75.1369 48.4719 74.7565 48.2319 72.3539C47.932 69.3507 41.1018 72.6394 45.1949 75.0269Z" fill="#97B6A7"/>
<path d="M44.4004 70.4622C45.5128 70.5722 47.6774 70.1918 47.4375 67.7892C47.1376 64.786 40.3074 68.0747 44.4004 70.4622Z" fill="#97B6A7"/>
<path d="M36.8834 80.2715C37.9957 80.3816 40.1604 80.0011 39.9204 77.5985C39.6205 74.5953 32.7903 77.8841 36.8834 80.2715Z" fill="#97B6A7"/>
<path d="M78.1885 54.5328C78.1898 55.9885 77.1651 57.8464 76.6525 58.5934C74.9739 59.7148 72.4078 59.8105 71.3345 59.7181L71.8935 58.7378L71.1935 58.5985L71.3329 57.8985L71.0525 57.4788L73.0115 56.7771L70.7705 55.2395L72.3098 54.8181L72.1688 53.6985L73.1492 54.2575L73.4278 52.8575L75.1098 55.3755L75.6688 54.3951L76.6492 54.9541L76.7885 54.2541C77.1153 54.4404 77.8528 54.757 78.1885 54.5328Z" fill="#97B6A7"/>
<path d="M83.162 61.1439C82.0927 61.429 80.5276 61.0386 79.8788 60.8078C78.7273 59.7933 78.1563 57.9266 78.0147 57.1201L78.844 57.3395L78.8098 56.798L79.3513 56.7637L79.6049 56.4759L80.5028 57.7783L81.1952 55.8317L81.8051 56.8804L82.6003 56.5583L82.3809 57.3877L83.4638 57.3192L81.9421 59.0464L82.7714 59.2658L82.552 60.0952L83.0935 60.0609C83.0204 60.3374 82.9317 60.941 83.162 61.1439Z" fill="#97B6A7"/>
</svg>
