<svg width="83" height="50" viewBox="0 0 83 50" fill="none" xmlns="http://www.w3.org/2000/svg">
<path d="M39.5916 49.463C67.5071 49.463 79.8543 31.1211 82.5385 21.9502C80.078 17.4766 68.0439 8.5293 39.5916 8.5293C11.1393 8.5293 1.34209 17.4766 0 21.9502C1.56577 31.1211 11.6762 49.463 39.5916 49.463Z" fill="#F4683C"/>
<path d="M44.9602 10.5425C63.2126 10.5425 75.8283 18.1477 79.8545 21.9502C85.2229 32.0159 -6.03918 31.3449 2.01336 21.9502C10.0659 12.5556 22.1447 10.5425 44.9602 10.5425Z" fill="#D3542C"/>
<mask id="mask0" mask-type="alpha" maskUnits="userSpaceOnUse" x="1" y="10" width="80" height="20">
<path d="M44.9602 10.5425C63.2126 10.5425 75.8283 18.1477 79.8545 21.9502C85.2229 32.0159 -6.03918 31.3449 2.01336 21.9502C10.0659 12.5556 22.1447 10.5425 44.9602 10.5425Z" fill="#D3542C"/>
</mask>
<g mask="url(#mask0)">
<path d="M75.1571 21.2792C77.8413 22.3529 77.6176 24.4108 77.1702 25.3055C58.381 37.3843 6.0395 27.9897 4.69741 25.3055C3.35532 22.6213 4.02637 21.2792 6.71055 18.5951C9.39473 15.9109 14.7631 15.2398 17.4473 15.2398C20.1314 15.2398 20.1314 15.2398 24.8288 13.2267C29.5261 11.2136 36.9076 12.5557 40.2628 13.2267C43.618 13.8977 47.6443 14.5688 53.0126 13.2267C58.381 11.8846 65.0914 15.2398 66.4335 17.253C67.7756 19.2661 71.8019 19.9371 75.1571 21.2792Z" fill="#B5D2C4"/>
<path d="M63.0786 30.0028C66.8812 27.766 72.2049 22.4871 63.0786 19.2661C51.6709 15.2398 48.3157 20.6081 41.6052 17.924C34.8948 15.2398 21.4739 17.2529 20.1318 19.2661C18.7897 21.2792 11.4082 19.9371 11.4082 22.6213C11.4082 25.3055 19.4607 31.3449 36.9079 31.3449C54.3551 31.3449 68.447 25.9765 63.0786 22.6213C57.7103 19.2661 48.3157 24.6344 43.6183 22.6213C38.921 20.6081 35.5658 17.924 29.5264 19.2661C23.487 20.6081 18.7897 21.2792 21.4739 23.9634C24.1581 26.6475 46.3025 28.6607 54.3551 25.9765C58.3813 23.9634 37.5789 26.6475 33.5527 23.9634" stroke="#97B6A7"/>
</g>
<path d="M33.7495 23.2443C37.751 13.9896 47.0879 4.69822 51.2561 1.20935C53.7571 3.41285 57.6336 9.91316 53.1319 18.2864C48.6302 26.6597 38.3346 25.0805 33.7495 23.2443Z" fill="#F4683C"/>
<path d="M53.4277 10.2224C52.8578 11.9336 46.4263 11.4856 43.2819 11.0477C45.3469 8.32324 49.7842 3.04979 51.0129 3.75147C52.5487 4.62856 54.1401 8.08328 53.4277 10.2224Z" fill="#D3542C"/>
<path d="M36.5444 20.7482C35.5915 19.2167 40.0436 14.5538 42.3888 12.4137C43.1664 15.7427 44.3906 22.5251 43.066 23.0225C41.4102 23.6442 37.7355 22.6624 36.5444 20.7482Z" fill="#D3542C"/>
<path d="M48.0229 20.3923C46.2349 20.6294 43.8211 14.6513 42.8377 11.6327C46.1913 12.296 52.8754 13.9756 52.7827 15.3875C52.6668 17.1524 50.258 20.096 48.0229 20.3923Z" fill="#D3542C"/>
<path d="M45.0961 22.5165C49.6977 13.5451 59.6254 4.88793 64.0141 1.68078C66.3647 4.044 69.8053 10.7852 64.7626 18.8443C59.7199 26.9033 49.5505 24.6504 45.0961 22.5165Z" fill="#F4683C"/>
<path d="M65.5882 10.8171C64.907 12.4872 58.519 11.6171 55.4101 10.9733C57.6499 8.39057 62.4244 3.42039 63.6043 4.20136C65.0791 5.17758 66.4398 8.72949 65.5882 10.8171Z" fill="#D3542C"/>
<path d="M48.0492 20.2096C47.1991 18.6188 51.9482 14.2588 54.4291 12.2776C54.9861 15.6506 55.7615 22.4987 54.4071 22.9079C52.714 23.4194 49.1118 22.1981 48.0492 20.2096Z" fill="#D3542C"/>
<path d="M59.5261 20.6096C57.7263 20.7285 55.7109 14.6046 54.9282 11.5278C58.2309 12.4103 64.7901 14.5259 64.6047 15.9287C64.373 17.6821 61.7758 20.4609 59.5261 20.6096Z" fill="#D3542C"/>
<path d="M52.6174 23.4993C60.1555 16.8032 72.5445 12.3288 77.7967 10.9286C79.132 13.9826 79.8978 21.5122 72.2789 27.1982C64.6601 32.8841 55.9967 27.1014 52.6174 23.4993Z" fill="#F4683C"/>
<path d="M75.9551 20.0147C74.7153 21.3248 69.0759 18.2004 66.4112 16.4745C69.4343 14.8782 75.6846 11.9744 76.5015 13.1296C77.5228 14.5736 77.5048 18.3772 75.9551 20.0147Z" fill="#D3542C"/>
<path d="M56.2056 22.4184C55.9893 20.6277 61.995 18.2835 65.0249 17.3352C64.3227 20.6809 62.5656 27.3451 61.1548 27.236C59.3915 27.0996 56.476 24.6567 56.2056 22.4184Z" fill="#D3542C"/>
<path d="M66.7587 26.9474C65.0381 26.4066 65.3771 19.9685 65.7617 16.817C68.5207 18.8356 73.8686 23.183 73.1878 24.4234C72.3369 25.9738 68.9096 27.6235 66.7587 26.9474Z" fill="#D3542C"/>
<path d="M3.27066 18.9233C3.34715 16.9169 5.99224 15.946 7.30522 15.7114C6.94658 15.1072 9.85744 11.3367 12.2842 12.756C14.7109 14.1753 16.5759 25.3244 12.8641 25.0764C9.15225 24.8284 3.17504 21.4312 3.27066 18.9233Z" fill="#D3542C"/>
<path d="M9.58791 17.0545C9.11254 16.4098 8.32628 15.0228 8.98427 14.6322C9.80674 14.144 9.79353 16.9325 9.58791 17.0545Z" fill="#F4683C"/>
<path d="M10.8543 16.3246C10.703 15.538 10.5909 13.9476 11.353 13.8785C12.3055 13.7922 11.0925 16.303 10.8543 16.3246Z" fill="#F4683C"/>
<path d="M12.053 18.3566C12.1966 17.5685 12.6677 16.0453 13.4031 16.2567C14.3223 16.521 12.2828 18.4226 12.053 18.3566Z" fill="#F4683C"/>
<path d="M12.8051 20.7251C13.4324 20.6722 14.6848 20.7167 14.6755 21.318C14.6638 22.0696 12.8022 20.913 12.8051 20.7251Z" fill="#F4683C"/>
<path d="M7.97468 18.1124C7.39553 17.5591 6.1195 16.6031 5.64857 17.2062C5.05991 17.96 7.82752 18.3009 7.97468 18.1124Z" fill="#F4683C"/>
<path d="M7.09001 19.2759C6.32898 19.026 4.76561 18.7129 4.60038 19.46C4.39384 20.3939 7.03837 19.5094 7.09001 19.2759Z" fill="#F4683C"/>
<path d="M8.63104 20.6401C7.83114 20.6826 6.26044 20.9565 6.37681 21.7128C6.52227 22.6581 8.6674 20.8765 8.63104 20.6401Z" fill="#F4683C"/>
<path d="M11.0788 22.0515C10.7908 22.6113 10.3545 23.7861 10.9139 24.0067C11.6133 24.2824 11.2537 22.1205 11.0788 22.0515Z" fill="#F4683C"/>
<path d="M9.20633 18.1151C9.72752 18.5843 10.0217 17.9556 10.1036 17.5825C10.2659 18.2648 10.9995 18.2402 11.3461 18.1427C11.1495 19.0379 11.6439 19.1554 11.9156 19.1022C11.1978 19.5283 11.3032 20.1146 11.4456 20.3545C10.8105 19.6933 10.6777 20.594 10.6907 21.1269C10.4145 20.2528 9.65237 20.2294 9.30583 20.3269C9.73026 19.8155 9.15758 19.2254 8.81818 18.9943C9.64989 18.7602 9.42349 18.3106 9.20633 18.1151Z" fill="#F4683C"/>
<path d="M11.0117 12.5859C11.7856 10.7332 14.6032 10.7495 15.9153 10.9893C15.7908 10.2978 19.8372 7.78457 21.6137 9.96344C23.3902 12.1423 21.2351 23.239 17.8448 21.7076C14.4545 20.1762 10.0444 14.9018 11.0117 12.5859Z" fill="#D3542C"/>
<path d="M17.5838 13.0465C17.3642 12.2762 17.1131 10.7017 17.8662 10.5661C18.8075 10.3967 17.8191 13.0042 17.5838 13.0465Z" fill="#F4683C"/>
<path d="M19.0258 12.8061C19.1594 12.0163 19.611 10.4872 20.349 10.6892C21.2715 10.9417 19.2564 12.8692 19.0258 12.8061Z" fill="#F4683C"/>
<path d="M19.4371 15.129C19.8475 14.4411 20.8219 13.1791 21.4368 13.6345C22.2054 14.2038 19.6293 15.2713 19.4371 15.129Z" fill="#F4683C"/>
<path d="M19.3132 17.611C19.9194 17.781 21.0769 18.261 20.8577 18.821C20.5837 19.521 19.2447 17.786 19.3132 17.611Z" fill="#F4683C"/>
<path d="M15.702 13.4728C15.3532 12.7518 14.4924 11.4096 13.8402 11.8097C13.0249 12.3099 15.4982 13.5979 15.702 13.4728Z" fill="#F4683C"/>
<path d="M14.4662 14.2531C13.8408 13.7526 12.4859 12.9121 12.0696 13.5541C11.5493 14.3567 14.3361 14.4537 14.4662 14.2531Z" fill="#F4683C"/>
<path d="M15.4322 16.0705C14.6681 15.8303 13.1008 15.5371 12.9452 16.2863C12.7506 17.2228 15.3836 16.3046 15.4322 16.0705Z" fill="#F4683C"/>
<path d="M17.2311 18.2492C16.7654 18.6728 15.9455 19.6205 16.3924 20.023C16.951 20.5261 17.3708 18.375 17.2311 18.2492Z" fill="#F4683C"/>
<path d="M16.855 13.9064C17.179 14.5284 17.6746 14.0423 17.8819 13.7216C17.7952 14.4175 18.491 14.6512 18.8498 14.6811C18.3523 15.451 18.7743 15.7341 19.0475 15.7794C18.226 15.9272 18.1195 16.5133 18.1689 16.7879C17.8053 15.9463 17.3658 16.7435 17.1914 17.2473C17.2386 16.3318 16.5329 16.0431 16.1741 16.0132C16.7507 15.6826 16.4208 14.9295 16.1837 14.5942C17.0448 14.6659 16.99 14.1656 16.855 13.9064Z" fill="#F4683C"/>
<path d="M20.2266 9.51787C21.4603 7.9338 24.1745 8.69029 25.3774 9.26655C25.4391 8.56665 30.0039 7.20567 31.145 9.77495C32.2862 12.3442 27.2895 22.4839 24.4211 20.1151C21.5527 17.7462 18.6844 11.498 20.2266 9.51787Z" fill="#D3542C"/>
<path d="M26.4462 11.6899C26.4368 10.889 26.6085 9.30384 27.3707 9.37102C28.3235 9.455 26.6844 11.7109 26.4462 11.6899Z" fill="#F4683C"/>
<path d="M27.9005 11.837C28.237 11.1101 29.0748 9.75353 29.7337 10.1425C30.5574 10.6287 28.1064 11.9586 27.9005 11.837Z" fill="#F4683C"/>
<path d="M27.687 14.1864C28.2638 13.6306 29.5357 12.6692 30.0092 13.2702C30.6011 14.0216 27.8349 14.3742 27.687 14.1864Z" fill="#F4683C"/>
<path d="M26.9147 16.5484C27.4548 16.8718 28.4455 17.6393 28.0867 18.1219C27.6383 18.7253 26.8026 16.6993 26.9147 16.5484Z" fill="#F4683C"/>
<path d="M24.5189 11.6067C24.3719 10.8192 23.8943 9.29804 23.1598 9.5126C22.2417 9.7808 24.2893 11.6737 24.5189 11.6067Z" fill="#F4683C"/>
<path d="M23.1213 12.0345C22.6495 11.3872 21.5633 10.22 20.9928 10.73C20.2798 11.3675 22.9431 12.1938 23.1213 12.0345Z" fill="#F4683C"/>
<path d="M23.5758 14.042C22.9017 13.6093 21.4667 12.9145 21.1195 13.5963C20.6856 14.4487 23.4674 14.2551 23.5758 14.042Z" fill="#F4683C"/>
<path d="M24.7383 16.6171C24.1775 16.9034 23.1373 17.6022 23.4627 18.108C23.8694 18.7402 24.8399 16.7752 24.7383 16.6171Z" fill="#F4683C"/>
<path d="M25.5169 12.3282C25.666 13.0134 26.272 12.6748 26.5563 12.4198C26.2896 13.0684 26.8996 13.4769 27.2378 13.6001C26.5554 14.212 26.8882 14.5961 27.1399 14.7116C26.3084 14.6383 26.0515 15.1758 26.027 15.4537C25.8975 14.5461 25.2638 15.1997 24.9631 15.64C25.2494 14.769 24.6444 14.305 24.3061 14.1818C24.9493 14.0145 24.829 13.201 24.6884 12.8153C25.5003 13.1109 25.579 12.6137 25.5169 12.3282Z" fill="#F4683C"/>
</svg>
