<svg width="15" height="12" viewBox="0 0 15 12" fill="none" xmlns="http://www.w3.org/2000/svg">
<path fill-rule="evenodd" clip-rule="evenodd" d="M14.7514 1.65927L6.18219 11.4305L0.321289 6.02044L1.67785 4.55084L6.03123 8.56934L13.2477 0.340576L14.7514 1.65927Z" fill="white"/>
</svg>
