<svg width="136" height="44" viewBox="0 0 136 44" fill="none" xmlns="http://www.w3.org/2000/svg">
<rect x="0.5" y="0.5" width="92.4248" height="42.2944" stroke="black"/>
<rect x="93.2504" y="0.964744" width="41.3649" height="41.3649" stroke="black" stroke-width="1.92949"/>
<rect x="93.6703" y="0.964744" width="41.3649" height="41.3649" fill="black" stroke="black" stroke-width="1.92949"/>
<path d="M23.1873 27.253V22.2035H28.1092V20.891H23.1873V17.0811H29.4582V15.7686H21.6196V27.253H23.1873Z" fill="black"/>
<path d="M37.3993 15.7686V27.253H38.9852V15.7686H37.3993Z" fill="black"/>
<path d="M47.5892 15.7686V27.253H55.5736V25.9405H49.1751V15.7686H47.5892Z" fill="black"/>
<path d="M63.529 15.7686V27.253H71.5134V25.9405H65.115V15.7686H63.529Z" fill="black"/>
<path d="M105.876 27.4717C108.464 27.4717 110.542 26.2139 110.542 22.8597V15.7686H108.993V22.8962C108.993 25.0655 107.881 26.141 105.876 26.141C103.87 26.141 102.795 25.0655 102.795 22.878V15.7686H101.227V22.8597C101.227 26.2139 103.287 27.4717 105.876 27.4717Z" fill="#FBFBFB"/>
<path d="M120.554 21.6748V17.0628H123.124C125.129 17.0628 126.096 17.8831 126.096 19.3597C126.096 20.8545 125.129 21.6748 123.124 21.6748H120.554ZM120.554 22.9691H123.161C126.004 22.9691 127.627 21.6201 127.627 19.3597C127.627 17.1175 126.004 15.7686 123.161 15.7686H118.986V27.253H120.554V22.9691Z" fill="#FBFBFB"/>
</svg>
