<svg width="19" height="19" viewBox="0 0 19 19" fill="none" xmlns="http://www.w3.org/2000/svg">
<path fill-rule="evenodd" clip-rule="evenodd" d="M8.08594 1.41421L15.8643 9.19254L8.08609 16.9707L9.5003 18.3849L18.6927 9.19254L18.6925 9.19239L17.2785 7.77833L9.50015 1.19209e-07L8.08594 1.41421Z" fill="#F8F8F8"/>
</svg>
